"OBJECTID";"ID_AORN";"NUMSITE";"ESPECE";"ESPECE_COM";coordinates;
1;1069;0587;PRUNUS_LAUROCERASUS;LAURIER_CERISE;-1.66923109940095,48.1127614510945,0 ;
2;522;0587;GLEDITSIA_TRIACANTHOS;FEVIER_D_AMERIQUE;-1.66774109440789,48.1143224481764,0 ;
3;387;0587;CEDRUS_DEODARA;CEDRE_DE_L_HIMALAYA_;-1.67021821873432,48.1153330527241,0 ;
4;359;0587;ILEX_AQUIFOLIUM_'ALBOMARGINATA';HOUX_A_FEUILLES_PANACHEES;-1.67001550067098,48.1151341534961,0 ;
5;1026;0587;MAGNOLIA_DENUDATA;MAGNOLIA_DU_YULA;-1.67054081758452,48.1124830563091,0 ;
6;936;0587;SEQUOIA_SEMPERVIRENS;SEQUOIA_A_FEUILLES_D_IF;-1.66823459798536,48.1137527659903,0 ;
7;167;0587;AESCULUS_HIPPOCASTANUM;MARRONNIER_COMMUN;-1.6718143116439,48.1142772903,0 ;
8;161;0587;AESCULUS_HIPPOCASTANUM;MARRONNIER_COMMUN;-1.67236603366753,48.1143327113847,0 ;
9;655;0587;PRUNUS_AVIUM;CERISIER;-1.67055473728009,48.1137936176699,0 ;
10;973;0587;LIQUIDAMBAR_STYRACIFLUA;COPALME_D_AMERIQUE;-1.67046114610231,48.1126708962842,0 ;
11;766;0587;ILEX_AQUIFOLIUM;HOUX;-1.67094489980881,48.1134933351835,0 ;
12;970;0587;BETULA_PENDULA_'YOUNGII';BOULEAU_BLANC_D_EUROPE_'YOUNGII';-1.67086794260973,48.11275495599,0 ;
13;169;0587;AESCULUS_HIPPOCASTANUM;MARRONNIER_COMMUN;-1.67292038513902,48.1144561088101,0 ;
14;334;0587;QUERCUS_ROBUR;CHENE_PEDONCULE;-1.67040189191916,48.1143640958563,0 ;
15;1055;0587;FAGUS_SYLVATICA;HETRE;-1.6696880072451,48.1125643262742,0 ;
16;882;0587;ABIES_ALBA;SAPIN_BLANC;-1.66921604343907,48.1136460436829,0 ;
17;356;0587;MAGNOLIA_X_SOULANGEANA;MAGNOLIA_DE_SOULANGE;-1.6699513776137,48.1144335116193,0 ;
18;330;0587;QUERCUS_ROBUR;CHENE_PEDONCULE;-1.67049362262994,48.1145180769455,0 ;
19;382;0587;TILIA_X_EUCHLORA;TILLEUL_DE_CRIMEE;-1.67068200092205,48.1153282806401,0 ;
20;622;0587;ACER_RUBRUM;ERABLE_ROUGE;-1.6701933909823,48.1138350469541,0 ;
21;739;0587;TAXUS_BACCATA;IF_COMMUN;-1.671240857861,48.1132484022664,0 ;
22;437;0587;PINUS_NIGRA;PIN_NOIR_D'Autriche;-1.66677175829831,48.1144771837089,0 ;
23;250;0587;QUERCUS_PALUSTRIS;CHENE_DES_MARAIS;-1.67131116045304,48.114575224802,0 ;
24;306;0587;PLATANUS_ORIENTALIS;PLATANE_D_ORIENT;-1.67104823117149,48.1153208077771,0 ;
25;1168;0587;AESCULUS_HIPPOCASTANUM;MARRONNIER_COMMUN;-1.67284467556335,48.1138091720884,0 ;
26;896;0587;FRAXINUS_ORNUS;FRENE_A_FLEURS;-1.66906474132251,48.1132941237061,0 ;
27;1093;0587;MACLURA_POMIFERA;ORANGER_DES_OSAGES;-1.66952062241087,48.1129616181071,0 ;
28;671;0587;ACER_PSEUDOPLATANUS;ERABLE_SYCOMORE;-1.67093424729611,48.1134682189846,0 ;
29;376;0587;QUERCUS_FRAINETTO;CHENE_DE_HONGRIE;-1.6706470788805,48.115187574411,0 ;
30;338;0587;QUERCUS_ROBUR;CHENE_PEDONCULE;-1.67044892147259,48.1146019889308,0 ;
31;773;0587;QUERCUS_ROBUR;CHENE_PEDONCULE;-1.67058722924177,48.1133605975225,0 ;
32;1058;0587;CERCIS_SILIQUASTRUM;ARBRE_DE_JUDEE;-1.66962767585264,48.1126795649498,0 ;
33;409;0587;AESCULUS_HIPPOCASTANUM;MARRONNIER_COMMUN;-1.67147920209669,48.114991307025,0 ;
34;524;0587;PRUNUS_SERRULATA;CERISIER_DU_JAPON;-1.66758951202532,48.1143217711643,0 ;
35;792;0587;CARPINUS_BETULUS;CHARME;-1.67115780800288,48.1131942472945,0 ;
36;1075;0587;AESCULUS_HIPPOCASTANUM;MARRONNIER_COMMUN;-1.66920520358821,48.1128610173381,0 ;
37;1030;0587;MAGNOLIA_GRANDIFLORA;MAGNOLIA_A_GRANDES_FLEURS;-1.67074482562433,48.1124501541493,0 ;
38;413;0587;CUPRESSUS_CASHMERIANA;CYPRES_DU_CACHEMIRE;-1.66639000089805,48.1149289671465,0 ;
39;730;0587;CUPRESSUS_SEMPERVIRENS;CYPRES_DE_PROVENCE;-1.67127256759997,48.1135657818399,0 ;
40;473;0587;ILEX_AQUIFOLIUM;HOUX;-1.66767271141735,48.1151586188872,0 ;
41;346;0587;ARAUCARIA_ARAUCANA;DESESPOIR_DU_SINGE;-1.67024724062125,48.1145472947077,0 ;
42;1122;0587;AESCULUS_HIPPOCASTANUM;MARRONNIER_COMMUN;-1.67148906014602,48.1150836193773,0 ;
43;647;0587;COTONEASTE_LACTEUS?;COTONEASTE_LACTEUS?;-1.67003259970311,48.1135634048246,0 ;
44;304;0587;PLATANUS_ORIENTALIS;PLATANE_D_ORIENT;-1.67116331472665,48.1152588906924,0 ;
45;231;0587;AESCULUS_HIPPOCASTANUM;MARRONNIER_COMMUN;-1.67141439733437,48.1144760761731,0 ;
46;289;0587;PRUNUS_CERASIFERA;CERISIER_A_FLEURS;-1.67087294630992,48.1143895969499,0 ;
47;255;0587;QUERCUS_ROBUR;CHENE_PEDONCULE;-1.67123112098262,48.114371774581,0 ;
48;602;0587;QUERCUS_ROBUR;CHENE_PEDONCULE;-1.67037576077456,48.1142399266595,0 ;
49;322;0587;QUERCUS_ROBUR;CHENE_PEDONCULE;-1.67060828418956,48.1150083750263,0 ;
50;963;0587;PRUNUS_SUBHIRTELLA;CERISIER_A_FLEURS;-1.67087534685426,48.1127956700966,0 ;
51;539;0587;BETULA_PENDULA;BOULEAU_BLANC_D_EUROPE;-1.66625442049279,48.1143523138283,0 ;
52;499;0587;PICEA_MARIANA_'DOUMETII';EPINETTE_NOIRE_'DOUMETII';-1.66614276072135,48.1144716434036,0 ;
53;552;0587;QUERCUS_ROBUR;CHENE_PEDONCULE;-1.67120766187158,48.1142774061407,0 ;
54;507;0587;QUERCUS_ROBUR;CHENE_PEDONCULE;-1.66696172624559,48.1142985469425,0 ;
55;772;0587;QUERCUS_ROBUR;CHENE_PEDONCULE;-1.67067507744458,48.113355974974,0 ;
56;938;0587;JUNIPERUS_COMMUNIS;GENEVRIER_COMMUN;-1.66950158554731,48.1128670085859,0 ;
57;486;0587;ABIES_NUMIDICA;SAPIN_D_ALGERIE;-1.66809070348274,48.1145506394365,0 ;
58;364;0587;MAGNOLIA_GRANDIFLORA;MAGNOLIA_A_GRANDES_FLEURS;-1.66982012116347,48.1151374962622,0 ;
59;432;0587;JUGLANS_NIGRA;NOYER_NOIR_D_AMERIQUE;-1.66686828187541,48.1145777017006,0 ;
60;987;0587;TAXUS_BACCATA;IF_COMMUN;-1.6712618226191,48.1125459326849,0 ;
61;537;0587;ILEX_AQUIFOLIUM;HOUX;-1.66742260754217,48.1138671989012,0 ;
62;862;0587;MAGNOLIA_X_SOULANGEANA;MAGNOLIA_DE_SOULANGE;-1.66936406878877,48.1133440436248,0 ;
63;1197;0587;AESCULUS_HIPPOCASTANUM;MARRONNIER_COMMUN;-1.67342446721043,48.1138255220778,0 ;
64;681;0587;TAXUS_BACCATA;IF_COMMUN;-1.67103509436251,48.1133289052051,0 ;
65;890;0587;PRUNUS_SERRULATA;CERISIER_DU_JAPON;-1.66887405970651,48.1134632447867,0 ;
66;533;0587;CHAMAECYPARIS_LAWSONIANA;CYPRES_DE_LAWSON;-1.66794886016879,48.1138354538214,0 ;
67;1116;0587;MALUS ??;?;-1.66973662915566,48.1127490431741,0 ;
68;156;0587;AESCULUS_HIPPOCASTANUM;MARRONNIER_COMMUN;-1.67284314416866,48.1143794263706,0 ;
70;494;0587;CEDRUS_DEODARA_'ARGENTEA';CEDRE_DE_L_HIMALAYA_'ARGENTEA';-1.66783751495856,48.1144056817351,0 ;
71;1108;0587;TAXUS_BACCATA;IF_COMMUN;-1.67082213728857,48.1128702387671,0 ;
72;1064;0587;PRUNUS_CERASIFERA_'NIGRA';CERISIER_A_FLEURS;-1.66930028366229,48.1127783561698,0 ;
73;1018;0587;AESCULUS_HIPPOCASTANUM;MARRONNIER_COMMUN;-1.6707203138075,48.1123807618961,0 ;
74;325;0587;QUERCUS_ROBUR;CHENE_PEDONCULE;-1.67056172356812,48.1148243090161,0 ;
75;1005;0587;ILEX_AQUIFOLIUM;HOUX;-1.67123838773425,48.1128507010976,0 ;
76;934;0587;TAXUS_BACCATA;IF_COMMUN;-1.6683704807276,48.1137221041944,0 ;
77;293;0587;CARPINUS_BETULUS;CHARME;-1.67083637391229,48.1143366444324,0 ;
78;990;0587;TAXUS_BACCATA;IF_COMMUN;-1.67124804088589,48.1124656404813,0 ;
79;1131;0587;AESCULUS_HIPPOCASTANUM;MARRONNIER_COMMUN;-1.67323473593803,48.1138406417513,0 ;
80;490;0587;MAGNOLIA_GRANDIFLORA;MAGNOLIA_A_GRANDES_FLEURS;-1.66873599488477,48.1147154290652,0 ;
81;789;0587;ILEX_AQUIFOLIUM;HOUX;-1.671077045659,48.1132106927503,0 ;
82;165;0587;AESCULUS_HIPPOCASTANUM;MARRONNIER_COMMUN;-1.67199519581434,48.1142955071639,0 ;
83;842;0587;ILEX_AQUIFOLIUM;HOUX;-1.67016633823826,48.1129856565855,0 ;
84;589;0587;QUERCUS_PALUSTRIS;CHENE_DES_MARAIS;-1.67077030740138,48.1142106887064,0 ;
85;744;0587;TAXUS_BACCATA;IF_COMMUN;-1.67124957044346,48.1131227726156,0 ;
86;1179;0587;AESCULUS_HIPPOCASTANUM;MARRONNIER_COMMUN;-1.6721956726987,48.1138813313003,0 ;
87;329;0587;QUERCUS_PALUSTRIS;CHENE_DES_MARAIS;-1.67050591351109,48.1145717698102,0 ;
88;972;0587;MAGNOLIA_GRANDIFLORA;MAGNOLIA_A_GRANDES_FLEURS;-1.67059813514683,48.1125718559621,0 ;
89;1077;0587;LIRIODENDRON_TULIPIFERA;TULIPIER_DE_VIRGINIE;-1.66933430186058,48.1128737143578,0 ;
90;1104;0587;CEDRUS_ATLANTICA;CEDRE_DE_L_ATLAS;-1.67086143447019,48.1126289453914,0 ;
91;931;0587;TAXUS_BACCATA;IF_COMMUN;-1.66849181064482,48.1137263340156,0 ;
92;556;0587;QUERCUS_ROBUR;CHENE_PEDONCULE;-1.67124346303057,48.1142337745209,0 ;
93;733;0587;TAXUS_BACCATA;IF_COMMUN;-1.67126000566277,48.1133126654045,0 ;
94;247;0587;QUERCUS_CERRIS;CHENE_CHEVELU;-1.67130259041436,48.1147027408705,0 ;
95;964;0587;CRATAEGUS_SP;?;-1.67095099985348,48.1127845305609,0 ;
96;779;0587;ACER ?;ERABLE_?;-1.67092179776906,48.1132394980666,0 ;
97;689;0587;TAXUS_BACCATA;IF_COMMUN;-1.67088770258257,48.1132190546554,0 ;
98;662;0587;ABIES_NUMIDICA;SAPIN_D_ALGERIE;-1.67106855232583,48.1135527656575,0 ;
100;345;0587;CHAMAECYPARIS_LAWSONIANA;CYPRES_DE_LAWSON;-1.67029055779271,48.1146005573456,0 ;
101;741;0587;TAXUS_BACCATA;IF_COMMUN;-1.6712659727427,48.1132021654147,0 ;
102;1138;0587;AESCULUS_HIPPOCASTANUM;MARRONNIER_COMMUN;-1.67286283148295,48.1138749675228,0 ;
103;976;0587;QUERCUS_ROBUR_SUBSP_FASTIGIATA;CHENE_PEDONCULE_FASTIGIE;-1.67009244805905,48.1126969095485,0 ;
104;941;0587;THUJA_PLICATA_'ZEBRINA';THUYA_GEANT_DE_CALIFORNIE_'ZEBRINA';-1.66974216704826,48.1128023363409,0 ;
105;652;0587;CEDRUS_DEODARA;CEDRE_DE_L_HIMALAYA_;-1.66997694938681,48.1134099918409,0 ;
106;605;0587;QUERCUS_ROBUR;CHENE_PEDONCULE;-1.67065697592253,48.1141879104265,0 ;
107;1098;0587;BETULA_PENDULA;BOULEAU_BLANC_D_EUROPE;-1.66961575150872,48.1128937213869,0 ;
108;738;0587;TAXUS_BACCATA;IF_COMMUN;-1.6712626248575,48.1132623351838,0 ;
109;336;0587;QUERCUS_CERRIS;CHENE_CHEVELU;-1.67042574656466,48.1144866319651,0 ;
110;197;0587;FRAXINUS_EXCELSIOR;FRENE_COMMUN;-1.67157798815296,48.1147525732972,0 ;
111;184;0587;TAXUS_BACCATA;IF_COMMUN;-1.67288634299381,48.1145439787602,0 ;
112;260;0587;QUERCUS_PALUSTRIS;CHENE_DES_MARAIS;-1.67101253215943,48.1150005032558,0 ;
113;367;0587;ILEX_AQUIFOLIUM_'ALBOMARGINATA';HOUX_A_FEUILLES_PANACHEES;-1.66970447992019,48.1151409075197,0 ;
114;276;0587;QUERCUS_PALUSTRIS;CHENE_DES_MARAIS;-1.67096316696383,48.1146437514476,0 ;
115;759;0587;CEDRUS_ATLANTICA;CEDRE_DE_L_ATLAS;-1.67107738742208,48.1134622466471,0 ;
116;1147;0587;AESCULUS_HIPPOCASTANUM;MARRONNIER_COMMUN;-1.67238493234965,48.1139208635117,0 ;
117;1029;0587;RHAMNUS_ALATERNUS;NERPRUN_ALATERNE;-1.67057365112729,48.1124234099471,0 ;
118;0;;PRUNUS_SERRULATA;CERISIER_DU_JAPON;-1.66754568631337,48.1143180211669,0 ;
119;0;;ALNUS_CORDATA;AULNE_DE_CORSE;-1.67119230309585,48.113607157743,0 ;
120;0;;ILEX_AQUIFOLIUM;HOUX;-1.67125369824115,48.1127890694873,0 ;
121;0;;CORNUS_MAS;CORNOUILLER_MALE;-1.67089591656711,48.1132340364685,0 ;
123;0;;THUJA_OCCIDENTALIS ?;THUYA_D_OCCIDENT?;-1.67105095442063,48.1129171182436,0 ;
124;0;;BETULA_PENDULA;BOULEAU_BLANC_D_EUROPE;-1.67047497749533,48.1130831277597,0 ;
125;0;;BETULA_PENDULA;BOULEAU_BLANC_D_EUROPE;-1.67049377627445,48.1130619153318,0 ;
126;0;;BETULA_PENDULA;BOULEAU_BLANC_D_EUROPE;-1.67059420168701,48.1130629479796,0 ;
127;0;;SAMBUCUS_RACEMOSA_'LACINIATA';SUREAU_A_GRAPPES;-1.67065750396864,48.1124133179512,0 ;
128;0;;ILEX_AQUIFOLIUM;HOUX;-1.67031245861843,48.1131671423342,0 ;
129;0;;ILEX_AQUIFOLIUM;HOUX;-1.66969410850323,48.1124144704636,0 ;
130;0;;PYRUS_CALLERYANA_'BRADFORD';POIRIER_DE_CHINE_'BRADFORD';-1.67009608205833,48.1136740053004,0 ;
131;0;;ACER_PALMATUM;ERABLE_JAPONAIS;-1.67041330736371,48.1138049929469,0 ;
132;0;;ULMUS_PARVIFLORA ?;ORME_DE_CHINE?;-1.67022797941147,48.113564943437,0 ;
133;0;;EXOCHORDA_RACEMOSA;BUISSON_DE_PERLES;-1.66986188997514,48.1135775914222,0 ;
134;0;;FAGUS_SYLVATICA_'ATROPURPUREA';HETRE_'ATROPURPUREA';-1.66985955963052,48.1140728682587,0 ;
135;0;;CEDRUS_ATLANTICA_'AUREA';CEDRE_DE_L_ATLAS_'AUREA';-1.66951347439324,48.1142614678314,0 ;
136;0;;PRUNUS_AMYGDALUS;AMANDIER;-1.66915643750151,48.1140641753723,0 ;
137;0;;ACER_PSEUDOPLATANUS;ERABLE_SYCOMORE;-1.6689358878302,48.1139168431762,0 ;
138;0;;MAGNOLIA_X_SOULANGEANA;MAGNOLIA_DE_SOULANGE;-1.6698979089722,48.1144481538687,0 ;
139;0;;QUERCUS_X_HISPANICA;FAUX_CHENE_LIEGE_D_ESPAGNE;-1.66637822791341,48.1141309419224,0 ;
140;0;;CHIONANTHUS_VIRGINICUS;ARBRE_DE_NEIGE;-1.66651065993125,48.1140036055958,0 ;
141;0;;PICEA_ABIES_'MAXWELLI';EPICEA_COMMUN_'MAXWELLI';-1.66669004606559,48.1139853712608,0 ;
142;0;;QUERCUS_SUBER;CHENE_LIEGE;-1.66662817746496,48.1138681106014,0 ;
143;0;;MAGNOLIA_GRANDIFLORA;MAGNOLIA_A_GRANDES_FLEURS;-1.66708648650184,48.1140036057425,0 ;
144;0;;FAGUS_SYLVATICA_'PENDULA';HETRE_PLEUREUR;-1.66976352586365,48.1136142931291,0 ;
145;0;;FAGUS_SYLVATICA_'PENDULA';HETRE_PLEUREUR;-1.66975699839938,48.1135195252272,0 ;
146;383;0587;TILIA_X_EUCHLORA;TILLEUL_DE_CRIMEE;-1.67061759392676,48.1153247189637,0 ;
147;1065;0587;PRUNUS_CERASIFERA_'NIGRA';CERISIER_A_FLEURS;-1.6693315800668,48.1127885414713,0 ;
148;254;0587;QUERCUS_RUBRA;CHENE_ROUGE;-1.67127594047542,48.1143670911577,0 ;
69;1088;0587;SOPHORA_JAPONICA ?;;-1.66924297573356,48.1129968540791,0 ;
99;56296;0587;TILIA_PLATYPHYLLOS;;-1.66757383196899,48.1145926889259,0 ;
122;0;;ROBINIA_PSEUDOACACIA ?;;-1.67104945528843,48.1129722398964,0 ;
149;488;0587;;;-1.66712933177338,48.1144231991389,0 ;
150;709;0587;;;-1.67011994691589,48.1130014676865,0 ;
151;281;0587;;;-1.67093572521075,48.1145447474584,0 ;
152;908;0587;LIRIODENDRON_TULIPIFERA;TULIPIER_DE_VIRGINIE;-1.66880678736051,48.1136568719801,0 ;
153;208;0587;ACER_NEGUNDO;ERABLE_NEGUNDO;-1.67164247861023,48.1152407127061,0 ;
154;649;0587;TAXODIUM_DISTICHUM;CYPRES_CHAUVE;-1.67015760690516,48.1136459305791,0 ;
155;1181;0587;AESCULUS_HIPPOCASTANUM;MARRONNIER_COMMUN;-1.67210239431125,48.1138914639938,0 ;
156;268;0587;QUERCUS_CERRIS;CHENE_CHEVELU;-1.67098647515404,48.1148243799903,0 ;
157;302;0587;PLATANUS_ORIENTALIS;PLATANE_D_ORIENT;-1.67128015918639,48.1151953818435,0 ;
158;404;0587;SEQUOIADENDRON_GIGANTEUM;SEQUOIA_GEANT;-1.66979319506653,48.1143638241975,0 ;
159;646;0587;CRATAEGUS_CRUSS_GALLI;EPINE_ERGOT_DE_COQ;-1.67009223050771,48.1134954599776,0 ;
160;993;0587;TAXUS_BACCATA;IF_COMMUN;-1.67092041029619,48.1125100612283,0 ;
161;860;0587;LIGUSTRUM_LUCIDUM;TROENE;-1.66933786303685,48.1131182242035,0 ;
162;516;0587;TAXUS_BACCATA;IF_COMMUN;-1.66749464802865,48.1141971576234,0 ;
163;831;0587;TRACHYCARPUS_FORTUNEI;PALMIER_DE_CHINE;-1.6702188425293,48.1133607601955,0 ;
164;775;0587;ACER?;ERABLE_?;-1.67091263991944,48.1133028376998,0 ;
165;1176;0587;AESCULUS_HIPPOCASTANUM;MARRONNIER_COMMUN;-1.67238519958443,48.1138555773195,0 ;
410;660;0587;PICEA_PUNGENS;EPICEA_BLEU;-1.67099262892018,48.1137492112063,0 ;
411;168;0587;AESCULUS_HIPPOCASTANUM;MARRONNIER_COMMUN;-1.67171440440713,48.1142683703277,0 ;
412;158;0587;AESCULUS_HIPPOCASTANUM;MARRONNIER_COMMUN;-1.67265702780179,48.114361389189,0 ;
413;311;0587;QUERCUS_ROBUR;CHENE_PEDONCULE;-1.67079910599563,48.1148340246411,0 ;
415;1136;0587;AESCULUS_HIPPOCASTANUM;MARRONNIER_COMMUN;-1.67295414188523,48.1138665946792,0 ;
416;930;0587;TAXUS_BACCATA;IF_COMMUN;-1.66852361697542,48.1137238073118,0 ;
417;1177;0587;AESCULUS_HIPPOCASTANUM;MARRONNIER_COMMUN;-1.6722891874299,48.1138721737962,0 ;
418;222;0587;TILIA_X_EUCHLORA;TILLEUL_DE_CRIMEE;-1.67121919914247,48.1154435383311,0 ;
419;608;0587;QUERCUS_RUBRA;CHENE_ROUGE;-1.67061214400008,48.1139806446704,0 ;
420;588;0587;QUERCUS_ROBUR;CHENE_PEDONCULE;-1.6707821128819,48.1142615160473,0 ;
421;855;0587;MACLURA_POMIFERA;ORANGER_DES_OSAGES;-1.66928831802113,48.1131420662878,0 ;
422;718;0587;CUPRESSUS_MACROCARPA;CYPRES_DE_LAMBERT;-1.66976578597852,48.1131583480756,0 ;
423;170;0587;AESCULUS_HIPPOCASTANUM;MARRONNIER_COMMUN;-1.67283060024308,48.1144459431406,0 ;
424;1092;0587;MACLURA_POMIFERA;ORANGER_DES_OSAGES;-1.66944448409596,48.1129540449782,0 ;
425;1059;0587;ULMUS ?;ORME?;-1.66960660338838,48.1127082862598,0 ;
426;187;0587;ACER_PSEUDOPLATANUS;ERABLE_SYCOMORE;-1.67241021113443,48.1144854354246,0 ;
427;429;0587;ABIES_NORDMANNIANA;SAPIN_DU_CAUCASE;-1.66700241918653,48.1145240514934,0 ;
428;760;0587;ILEX_AQUIFOLIUM;HOUX;-1.67100152915258,48.1134407091728,0 ;
429;1142;0587;AESCULUS_HIPPOCASTANUM;MARRONNIER_COMMUN;-1.67267414498417,48.1138925172392,0 ;
430;1073;0587;PRUNUS_CERASIFERA_'NIGRA';CERISIER_A_FLEURS;-1.66918280560329,48.1128105506417,0 ;
431;323;0587;QUERCUS_ROBUR;CHENE_PEDONCULE;-1.67059515602003,48.1149472382073,0 ;
432;937;0587;SEQUOIADENDRON_GIGANTEUM;SEQUOIA_GEANT;-1.6695893806046,48.1133804402746,0 ;
433;309;0587;QUERCUS_ROBUR;CHENE_PEDONCULE;-1.67082121552194,48.1149318603009,0 ;
434;821;0587;MAGNOLIA ?;MAGNOLIA;-1.67051939320689,48.11328728375,0 ;
435;349;0587;CHAMAECYPARIS_LAWSONIANA;CYPRES_DE_LAWSON;-1.66996334620321,48.1145535722885,0 ;
436;198;0587;CRATAEGUS_LAEVIGATA;EPINE_BLANCHE;-1.6715766168342,48.1147116528707,0 ;
437;471;0587;ILEX_AQUIFOLIUM;HOUX;-1.66774618417784,48.1151752878455,0 ;
438;422;0587;MAGNOLIA_GRANDIFLORA;MAGNOLIA_A_GRANDES_FLEURS;-1.66718520812019,48.1145478834006,0 ;
439;403;0587;SEQUOIADENDRON_GIGANTEUM;SEQUOIA_GEANT;-1.66968857703448,48.114388377444,0 ;
440;674;0587;CEDRUS_ATLANTICA;CEDRE_DE_L_ATLAS;-1.67088183054186,48.1134508319576,0 ;
441;580;0587;QUERCUS_ROBUR;CHENE_PEDONCULE;-1.67084832800784,48.1141088010945,0 ;
442;682;0587;TAXUS_BACCATA;IF_COMMUN;-1.67102290811812,48.1132871842358,0 ;
443;518;0587;THUJA_PLICATA;THUYA_GEANT_DE_CALIFORNIE;-1.66747318703225,48.1141112740356,0 ;
444;321;0587;QUERCUS_ROBUR;CHENE_PEDONCULE;-1.67068264582828,48.114304261725,0 ;
445;423;0587;BETULA_PENDULA;BOULEAU_BLANC_D_EUROPE;-1.66708367915987,48.1144876031862,0 ;
446;877;0587;ACER_PSEUDOPLATANUS;ERABLE_SYCOMORE;-1.66896777715969,48.1137316863494,0 ;
447;913;0587;ILEX_AQUIFOLIUM;HOUX;-1.66859142850192,48.1136679190704,0 ;
448;188;0587;CELTIS_AUSTRALIS;MICOCOULIER_DE_PROVENCE;-1.67230120775917,48.1144788976388,0 ;
449;1118;0587;AESCULUS_HIPPOCASTANUM;MARRONNIER_COMMUN;-1.67151993208533,48.1153423219257,0 ;
450;754;0587;ACER_PLATANOIDES;ERABLE_A_FEUILLES_DE_PLATANE;-1.67124727878626,48.1134491475166,0 ;
451;246;0587;AESCULUS_HIPPOCASTANUM;MARRONNIER_COMMUN;-1.67134908807866,48.1147253718548,0 ;
452;1036;0587;ILEX_AQUIFOLIUM;HOUX;-1.6698277964614,48.112533800393,0 ;
453;1017;0587;AESCULUS_HIPPOCASTANUM;MARRONNIER_COMMUN;-1.67076500122166,48.1124273151692,0 ;
454;944;0587;PICEA_ABIES;EPICEA_COMMUN;-1.66993896258225,48.1125952789764,0 ;
455;924;0587;ILEX_AQUIFOLIUM;HOUX;-1.66814055887394,48.1137661512555,0 ;
456;585;0587;QUERCUS_CERRIS;CHENE_CHEVELU;-1.67090440150874,48.1142253743889,0 ;
457;226;0587;TILIA_X_EUCHLORA;TILLEUL_DE_CRIMEE;-1.67153346261433,48.1154687230119,0 ;
458;606;0587;QUERCUS_ROBUR;CHENE_PEDONCULE;-1.67064674788504,48.1141383787176,0 ;
459;350;0587;TAXUS_BACCATA;IF_COMMUN;-1.66984654004682,48.1145399161599,0 ;
460;680;0587;TAXUS_BACCATA;IF_COMMUN;-1.67110272896427,48.1133483834817,0 ;
166;394;0587;QUERCUS_ILEX;CHENE_VERT;-1.66953554105105,48.1146899180963,0 ;
167;985;0587;TAXUS_BACCATA;IF_COMMUN;-1.67122465806009,48.1128169560385,0 ;
168;648;0587;SOPHORA_JAPONICA_'PENDULA';SOPHORA_DU_JAPON_PLEUREUR;-1.67025593849645,48.1135706307623,0 ;
169;796;0587;ILEX_AQUIFOLIUM;HOUX;-1.67122383362899,48.1133461354512,0 ;
170;227;0587;AESCULUS_HIPPOCASTANUM;MARRONNIER_COMMUN;-1.67139081550426,48.1142795197476,0 ;
171;884;0587;PSEUDOTSUGA_MENZIESII;SAPIN_DE_DOUGLAS;-1.66911606568027,48.1135885036571,0 ;
172;348;0587;CHAMAECYPARIS_LAWSONIANA;CYPRES_DE_LAWSON;-1.67006809193225,48.1145783561271,0 ;
175;666;0587;PICEA_ABIES;EPICEA_COMMUN;-1.67099501712633,48.1134840592379,0 ;
176;814;0587;AESCULUS_HIPPOCASTANUM;MARRONNIER_COMMUN;-1.6707758279217,48.1131659739071,0 ;
177;361;0587;ILEX_AQUIFOLIUM;HOUX;-1.66993615724134,48.1151374938137,0 ;
178;650;0587;TAXUS_BACCATA;IF_COMMUN;-1.67044748421751,48.1135770508294,0 ;
179;967;0587;CORYLUS_COLURNA;NOISETIER_DE_BYZANCE;-1.67050345805022,48.1128274657677,0 ;
180;153;0587;AESCULUS_HIPPOCASTANUM;MARRONNIER_COMMUN;-1.67311616980838,48.1144052064168,0 ;
181;1039;0587;PRUNUS ?;PRUNUS?;-1.66983905590005,48.112360363148,0 ;
182;724;0587;CUPRESSUS_SEMPERVIRENS;CYPRES_DE_PROVENCE;-1.67127341706049,48.1136916249442,0 ;
183;974;0587;MAGNOLIA_X_SOULANGEANA;MAGNOLIA_DE_SOULANGE;-1.67042023423878,48.1125627186079,0 ;
184;952;0587;PICEA_PUNGENS_'KOSTER';EPICEA_BLEU_'KOSTER';-1.67041614630805,48.1123466776114,0 ;
185;411;0587;AESCULUS_HIPPOCASTANUM;MARRONNIER_COMMUN;-1.67146282746331,48.1148381732067,0 ;
186;1163;0587;AESCULUS_HIPPOCASTANUM;MARRONNIER_COMMUN;-1.67321408008286,48.1137679340206,0 ;
187;569;0587;QUERCUS_CERRIS;CHENE_CHEVELU;-1.67096720835536,48.1140985260267,0 ;
188;573;0587;QUERCUS_CERRIS;CHENE_CHEVELU;-1.67090556037036,48.1141046840635,0 ;
189;981;0587;TAXUS_BACCATA;IF_COMMUN;-1.67122594010953,48.1128443730644,0 ;
190;1103;0587;FAGUS_SYLVATICA_PURPUREA;HETRE_POURPRE;-1.66990876731849,48.1129843730467,0 ;
191;900;0587;ILEX_X_ALTACLARENSIS;HOUX_DE_HIGHCLERE;-1.66937527412001,48.1132228301342,0 ;
192;797;0587;ILEX_AQUIFOLIUM;HOUX;-1.67119418317701,48.113355792002,0 ;
193;257;0587;PLATANUS_X_ACERIFOLIA;PLATANE_A_FEUILLES_D_ERABLE;-1.6711790604535,48.1150444264481,0 ;
194;546;0587;THUJOPSIS_DOLOBRATA;THUJOPSIS;-1.66619838287515,48.1141883781175,0 ;
195;564;0587;QUERCUS_CERRIS;CHENE_CHEVELU;-1.67110434434726,48.1140631362222,0 ;
196;811;0587;ILEX_AQUIFOLIUM;HOUX;-1.6711038388373,48.1129976484498,0 ;
197;667;0587;TAXUS_BACCATA;IF_COMMUN;-1.67101050697085,48.1133961938766,0 ;
198;1043;0587;ACER_PSEUDOPLATANUS;ERABLE_SYCOMORE;-1.66969556214402,48.1123651752355,0 ;
199;886;0587;PICEA_SMITHIANA;EPICEA_PLEUREUR_DE_L_HIMALAYA;-1.66903694083027,48.1135523101292,0 ;
200;220;0587;TILIA_X_EUCHLORA;TILLEUL_DE_CRIMEE;-1.67107558613507,48.1154327798561,0 ;
201;849;0587;MAGNOLIA_GRANDIFLORA;MAGNOLIA_A_GRANDES_FLEURS;-1.6699667362805,48.1132847381838,0 ;
202;983;0587;TAXUS_BACCATA;IF_COMMUN;-1.67122102498597,48.1128310359693,0 ;
203;157;0587;AESCULUS_HIPPOCASTANUM;MARRONNIER_COMMUN;-1.67275464953043,48.1143702967082,0 ;
204;1127;0587;AESCULUS_HIPPOCASTANUM;MARRONNIER_COMMUN;-1.6733085550998,48.1139549484478,0 ;
205;196;0587;AESCULUS_CARNEA;MARRONNIER_ROUGE;-1.67159836574264,48.1148488464916,0 ;
206;576;0587;CARPINUS_BETULUS;CHARME;-1.67078350133901,48.1141156081004,0 ;
207;1140;0587;AESCULUS_HIPPOCASTANUM;MARRONNIER_COMMUN;-1.67276728748918,48.1138851919293,0 ;
208;856;0587;QUERCUS_ILEX;CHENE_VERT;-1.66926780125534,48.1131975095576,0 ;
209;1153;0587;AESCULUS_HIPPOCASTANUM;MARRONNIER_COMMUN;-1.6720247720882,48.1139530909966,0 ;
210;201;0587;MALUS_FLORIBUNDA;POMMIER_A_FLEURS;-1.67156253412487,48.1145479951558,0 ;
211;841;0587;ILEX_AQUIFOLIUM;HOUX;-1.6701847361132,48.1129977234523,0 ;
212;496;0587;MAGNOLIA_MACROPHYLLA;MAGNOLIA_A_GRANDES_FEUILLES;-1.66609990771348,48.114737185524,0 ;
215;175;0587;AESCULUS_HIPPOCASTANUM;MARRONNIER_COMMUN;-1.67235491996711,48.1143915261861,0 ;
216;1205;0587;MAGNOLIA_GRANDIFLORA;MAGNOLIA_A_GRANDES_FLEURS;-1.66821783677008,48.1151608927317,0 ;
217;803;0587;AESCULUS_HIPPOCASTANUM;MARRONNIER_COMMUN;-1.67124795301897,48.1132268208546,0 ;
218;414;0587;CUPRESSUS_CASHMERIANA;CYPRES_DU_CACHEMIRE;-1.66635883444216,48.1149487587125,0 ;
219;632;0587;ILEX_AQUIFOLIUM;HOUX;-1.67034093575098,48.1136009496888,0 ;
220;829;0587;TRACHYCARPUS_FORTUNEI;PALMIER_DE_CHINE;-1.67024654725661,48.1133502692463,0 ;
221;579;0587;CARPINUS_BETULUS;CHARME;-1.67082341503869,48.1142847754542,0 ;
222;317;0587;QUERCUS_PALUSTRIS;CHENE_DES_MARAIS;-1.67073272582479,48.1145274641514,0 ;
223;978;0587;LARIX_KAEMPFERI_'PENDULA';MELEZE_DU_JAPON_'PENDULA';-1.67095033525972,48.112902862572,0 ;
225;1025;0587;MAGNOLIA_X_SOULANGEANA;MAGNOLIA_DE_SOULANGE;-1.67060297215132,48.1124888557255,0 ;
226;181;0587;AESCULUS_HIPPOCASTANUM;MARRONNIER_COMMUN;-1.67180566773135,48.1143297179164,0 ;
227;590;0587;QUERCUS_PALUSTRIS;CHENE_DES_MARAIS;-1.67076161129171,48.1141671373465,0 ;
228;920;0587;ILEX_AQUIFOLIUM;HOUX;-1.66831072611523,48.113744313086,0 ;
229;249;0587;AESCULUS_HIPPOCASTANUM;MARRONNIER_COMMUN;-1.67133105017375,48.1146156920891,0 ;
230;400;0587;FAGUS_SYLVATICA;HETRE;-1.66969466312911,48.1145300683641,0 ;
231;1206;0587;ILEX_AQUIFOLIUM;HOUX;-1.66826423357768,48.1151610185571,0 ;
232;988;0587;TAXUS_BACCATA;IF_COMMUN;-1.67125616659511,48.1125087608583,0 ;
234;415;0587;CUPRESSUS_CASHMERIANA;CYPRES_DU_CACHEMIRE;-1.66634782602884,48.1149275537274,0 ;
235;848;0587;MAGNOLIA_GRANDIFLORA;MAGNOLIA_A_GRANDES_FLEURS;-1.67003681731934,48.1132639759996,0 ;
236;761;0587;ACER_PSEUDOPLATANUS;ERABLE_SYCOMORE;-1.67102001555861,48.1134274720966,0 ;
237;416;0587;CRYPTOMERIA_JAPONICA;CRYPTOMERIA_DU_JAPON;-1.66620654414127,48.1149458531659,0 ;
238;861;0587;MAGNOLIA_X_SOULANGEANA;MAGNOLIA_DE_SOULANGE;-1.66949158540492,48.1133112359172,0 ;
239;1051;0587;PHILLYREA_LATIFOLIA;FILAIRE_A_FEUILLES_LARGES;-1.66959539991193,48.1125964825152,0 ;
240;1129;0587;AESCULUS_HIPPOCASTANUM;MARRONNIER_COMMUN;-1.67331003301894,48.1138906068832,0 ;
241;140;0587;AESCULUS_HIPPOCASTANUM;MARRONNIER_COMMUN;-1.67330039941918,48.1143347334729,0 ;
242;943;0587;TAXUS_BACCATA;IF_COMMUN;-1.66982848675118,48.1126505553693,0 ;
243;234;0587;AESCULUS_HIPPOCASTANUM;MARRONNIER_COMMUN;-1.67143358744655,48.1146291145435,0 ;
244;956;0587;ACER_PSEUDOPLATANUS;ERABLE_SYCOMORE;-1.67079124566731,48.1129677242108,0 ;
245;1208;0587;ILEX_AQUIFOLIUM_'ALBOMARGINATA';HOUX_A_FEUILLES_PANACHEES;-1.66834308932887,48.1151583254378,0 ;
246;155;0587;AESCULUS_HIPPOCASTANUM;MARRONNIER_COMMUN;-1.67293579593631,48.1143884140603,0 ;
248;0;;QUERCUS_ILEX;CHENE_VERT;-1.67096301027474,48.1134137964866,0 ;
250;0;;CORNUS_MAS;CORNOUILLER_MALE;-1.67079665987093,48.1132730803103,0 ;
414;454;0587;TILIA_PLATYPHYLLOS;;-1.66773381354973,48.1150057199538,0 ;
461;762;0587;??;;-1.6710575729724,48.1134227665502,0 ;
173;1015;0587;LIGUSTRUM_VULGARE;;-1.67084325963696,48.1124539030518,0 ;
174;453;0587;TILIA_PLATYPHYLLOS;;-1.66773841448592,48.1150431977822,0 ;
213;452;0587;TILIA_PLATYPHYLLOS;;-1.66773815823283,48.1150557221994,0 ;
214;56308;0587;TILIA_PLATYPHYLLOS;;-1.66760118200106,48.1149042741354,0 ;
224;56305;0587;TILIA_PLATYPHYLLOS;;-1.66772745857708,48.1149469625483,0 ;
233;56304;0587;TILIA_PLATYPHYLLOS;;-1.66772144019314,48.1149085420727,0 ;
247;0;;TILIA_PLATYPHYLLOS;;-1.67142454382,48.1153482370622,0 ;
249;0;;??;;-1.67092840109628,48.1134885575201,0 ;
251;0;;ILEX_AQUIFOLIUM;HOUX;-1.67083539594336,48.1132115704014,0 ;
252;0;;ILEX_AQUIFOLIUM;HOUX;-1.67068746730869,48.1131926557109,0 ;
254;0;;ILEX_AQUIFOLIUM;HOUX;-1.67013070889352,48.1132314888562,0 ;
255;0;;LIRIODENDRON_TULIPIFERA;TULIPIER_DE_VIRGINIE;-1.66974705651479,48.1124692848152,0 ;
256;0;;TAXUS_BACCATA;IF_COMMUN;-1.66937069563423,48.1127810762908,0 ;
257;0;;CRATAEGUS_SP.;?;-1.66926406048456,48.1130366351631,0 ;
258;0;;PICEA_ORIENTALIS;SAPIN_DU_CAUCASE;-1.66958603757322,48.112870923614,0 ;
259;0;;ILEX_X_ALTACLARENSIS;HOUX_DE_HIGHCLERE;-1.66926680506296,48.1132716844949,0 ;
260;0;;THUJOPSIS_DOLOBRATA;THUJOPSIS;-1.66937699636905,48.1130072183531,0 ;
261;0;;PINUS_NIGRA;PIN_NOIR_D'Autriche;-1.67039932742296,48.1135302319484,0 ;
262;0;;TAXUS_BACCATA;IF_COMMUN;-1.66884262506067,48.1135613156488,0 ;
263;0;;TAXUS_BACCATA;IF_COMMUN;-1.66873871237048,48.1136663183108,0 ;
264;0;;TAXODIUM_DISTICHUM;CYPRES_CHAUVE;-1.66831400324594,48.1140947276934,0 ;
265;0;;CERCIDIPHYLLUM_JAPONICUM;ARBRE_A_CARAMEL;-1.66629508795772,48.113995557065,0 ;
266;0;;PAULOWNIA_TOMENTOSA;PAULOWNIA_TOMENTOSA;-1.6679038222752,48.1151776373007,0 ;
267;0;;FRAXINUS_ORNUS;FRENE_A_FLEURS;-1.66728520871732,48.1150062933184,0 ;
268;0;;KOELREUTERIA_PANICULATA;SAVONNIER;-1.6665810894961,48.114384161812,0 ;
269;179;0587;AESCULUS_HIPPOCASTANUM;MARRONNIER_COMMUN;-1.67198436939389,48.1143492696558,0 ;
270;1133;0587;AESCULUS_HIPPOCASTANUM;MARRONNIER_COMMUN;-1.67313802177936,48.1138501427113,0 ;
271;481;0587;ILEX_AQUIFOLIUM;HOUX;-1.66761332527507,48.1151114861066,0 ;
272;199;0587;CELTIS_AUSTRALIS;MICOCOULIER_DE_PROVENCE;-1.67157450811709,48.1146610335534,0 ;
273;1162;0587;AESCULUS_HIPPOCASTANUM;MARRONNIER_COMMUN;-1.67331307021702,48.1137612626627,0 ;
274;273;0587;QUERCUS_CERRIS;CHENE_CHEVELU;-1.67097168247383,48.1147361084338,0 ;
275;315;0587;QUERCUS_ROBUR;CHENE_PEDONCULE;-1.67075669437198,48.1146267669384,0 ;
276;879;0587;ABIES_ALBA;SAPIN_BLANC;-1.66919146702141,48.1137135107261,0 ;
277;216;0587;TILIA_X_EUCHLORA;TILLEUL_DE_CRIMEE;-1.67106196729795,48.1153581532718,0 ;
278;483;0587;HALESIA_CAROLINA;ARBRE_AUX_CLOCHETTES_D_ARGENT;-1.66808820478488,48.1147686143906,0 ;
279;958;0587;CATALPA_BIGNONIOIDES;CATALPA_COMMUN;-1.67071725414767,48.1129830383738,0 ;
280;777;0587;ACER_PSEUDOPLATANUS;ERABLE_SYCOMORE;-1.67083695765734,48.1132959704967,0 ;
281;1135;0587;AESCULUS_HIPPOCASTANUM;MARRONNIER_COMMUN;-1.67304238660885,48.1138570587196,0 ;
282;591;0587;QUERCUS_RUBRA;CHENE_ROUGE;-1.67074394699379,48.1140905782734,0 ;
283;663;0587;TAXUS_BACCATA;IF_COMMUN;-1.67106314720119,48.1135082921845,0 ;
284;992;0587;TAXUS_BACCATA;IF_COMMUN;-1.67122586195635,48.1124410069839,0 ;
285;669;0587;TAXUS_BACCATA;IF_COMMUN;-1.67093060940059,48.1134257551923,0 ;
286;549;0587;CHAMAECYPARIS_LAWSONIANA_'HILLIERI';CYPRES_DE_LAWSON_'HILLIERI';-1.66661140431086,48.1140697461926,0 ;
287;525;0587;PRUNUS_SERRULATA;CERISIER_DU_JAPON;-1.66755449724633,48.114345746167,0 ;
288;259;0587;ZELKOVA_CARPINIFOLIA;ORME_DU_CAUCASE;-1.67101170914905,48.1150320443703,0 ;
290;614;0587;QUERCUS_ROBUR;CHENE_PEDONCULE;-1.67095432388444,48.1139064656812,0 ;
291;782;0587;ACER_PLATANOIDES;ERABLE_A_FEUILLES_DE_PLATANE;-1.67108598792977,48.1133368901034,0 ;
292;438;0587;SEQUOIADENDRON_GIGANTEUM;SEQUOIA_GEANT;-1.6667283468122,48.1144544455394,0 ;
293;1097;0587;FAGUS_SYLVATICA;HETRE;-1.66965993527072,48.1128224330468,0 ;
294;1186;0587;AESCULUS_HIPPOCASTANUM;MARRONNIER_COMMUN;-1.67182642862928,48.1139219341721,0 ;
296;285;0587;QUERCUS_PALUSTRIS;CHENE_DES_MARAIS;-1.67082709809996,48.114454910786,0 ;
297;307;0587;PLATANUS_X_ACERIFOLIA;PLATANE_A_FEUILLES_D_ERABLE;-1.67123814836954,48.1151434261686,0 ;
298;548;0587;CUPRESSUS_CASHMERIANA;CYPRES_DU_CACHEMIRE;-1.66648516139567,48.1141369916736,0 ;
303;574;0587;QUERCUS_CERRIS;CHENE_CHEVELU;-1.67084109465133,48.1140526843815,0 ;
304;290;0587;AESCULUS_HIPPOCASTANUM;MARRONNIER_COMMUN;-1.67090922254444,48.114392769309,0 ;
305;600;0587;QUERCUS_ROBUR;CHENE_PEDONCULE;-1.67034436685462,48.1140766810069,0 ;
306;550;0587;QUERCUS_SUBER;CHENE_LIEGE;-1.66645229736028,48.1139312982281,0 ;
307;799;0587;ILEX_AQUIFOLIUM;HOUX;-1.67118079335892,48.1133212248713,0 ;
308;420;0587;ALNUS_GLUTINOSA;AULNE_GLUTINEUX;-1.66704570877099,48.1145275261107,0 ;
309;1003;0587;ACER_PSEUDOPLATANUS;ERABLE_SYCOMORE;-1.67124004372292,48.1128018436043,0 ;
310;948;0587;CHAMAECYPARIS_LAWSONIANA;CYPRES_DE_LAWSON;-1.66967142828251,48.1123872493631,0 ;
311;1121;0587;AESCULUS_HIPPOCASTANUM;MARRONNIER_COMMUN;-1.67150473822768,48.115194099632,0 ;
312;271;0587;QUERCUS_PALUSTRIS;CHENE_DES_MARAIS;-1.67090081531683,48.114774815399,0 ;
313;673;0587;TAXUS_BACCATA;IF_COMMUN;-1.67091958547814,48.1134698904448,0 ;
314;1032;0587;CERCIS_SILIQUASTRUM;ARBRE_DE_JUDEE;-1.6705222144236,48.1122900207856,0 ;
315;232;0587;AESCULUS_HIPPOCASTANUM;MARRONNIER_COMMUN;-1.67142177388109,48.1145252551283,0 ;
316;1191;0587;AESCULUS_HIPPOCASTANUM;MARRONNIER_COMMUN;-1.67341144304894,48.1140822907786,0 ;
318;571;0587;QUERCUS_RUBRA;CHENE_ROUGE;-1.67095449134995,48.1140427771404,0 ;
319;565;0587;QUERCUS_CERRIS;CHENE_CHEVELU;-1.67109412116299,48.1140295415516,0 ;
321;776;0587;ULMUS_LAEVIS;ORME_LISSE;-1.6708868789855,48.1133088499352,0 ;
323;183;0587;TAXUS_BACCATA;IF_COMMUN;-1.67297144153058,48.114542059555,0 ;
324;793;0587;ACER_PSEUDOPLATANUS;ERABLE_SYCOMORE;-1.67127144257321,48.1134874876546,0 ;
325;152;0587;AESCULUS_HIPPOCASTANUM;MARRONNIER_COMMUN;-1.67321574441143,48.114415037079,0 ;
326;699;0587;JUNIPERUS_CHINENSIS;GENEVRIER_DE_CHINE;-1.67036777668735,48.1131502053791,0 ;
327;1148;0587;AESCULUS_HIPPOCASTANUM;MARRONNIER_COMMUN;-1.67230139070788,48.1139264251648,0 ;
328;562;0587;QUERCUS_ROBUR;CHENE_PEDONCULE;-1.67121698595041,48.1140680207146,0 ;
329;664;0587;TAXUS_BACCATA;IF_COMMUN;-1.67102713227666,48.1134997091743,0 ;
330;261;0587;CARPINUS_BETULUS;CHARME;-1.67097402392483,48.1150068611768,0 ;
331;869;0587;PRUNUS_SUBHIRTELLA_'AUTUMNALIS';CERISIER_A_FLEURS_'AUTUMNALIS';-1.6699142018794,48.1135870780879,0 ;
332;1101;0587;FAGUS_SYLVATICA;HETRE;-1.66963355349806,48.1129827007106,0 ;
333;159;0587;AESCULUS_HIPPOCASTANUM;MARRONNIER_COMMUN;-1.67255585187606,48.1143517033168,0 ;
334;927;0587;TAXUS_BACCATA;IF_COMMUN;-1.6686420597632,48.1136936514115,0 ;
337;1685;0587;FRAXINUS_ORNUS;FRENE_A_FLEURS;-1.67167198355338,48.1153985311703,0 ;
338;950;0587;SEQUOIADENDRON_GIGANTEUM;SEQUOIA_GEANT;-1.66984030228146,48.1124402742717,0 ;
339;1170;0587;AESCULUS_HIPPOCASTANUM;MARRONNIER_COMMUN;-1.67274912784125,48.1138180918861,0 ;
340;313;0587;QUERCUS_ROBUR;CHENE_PEDONCULE;-1.670777674054,48.1147274318991,0 ;
341;905;0587;CORNUS_MAS;CORNOUILLER_MALE;-1.66886868736221,48.1135710224919,0 ;
342;609;0587;QUERCUS_ROBUR;CHENE_PEDONCULE;-1.6706234105939,48.1140350026728,0 ;
343;684;0587;TAXUS_BACCATA;IF_COMMUN;-1.67104377479243,48.1131763556466,0 ;
344;177;0587;AESCULUS_HIPPOCASTANUM;MARRONNIER_COMMUN;-1.67216833715603,48.1143708931685,0 ;
345;1184;0587;AESCULUS_HIPPOCASTANUM;MARRONNIER_COMMUN;-1.67191801994329,48.1139108826793,0 ;
346;563;0587;QUERCUS_ROBUR;CHENE_PEDONCULE;-1.67117538478515,48.1140814173832,0 ;
347;405;0587;SEQUOIADENDRON_GIGANTEUM;SEQUOIA_GEANT;-1.66967814677998,48.1143502875547,0 ;
348;594;0587;TAXUS_BACCATA;IF_COMMUN;-1.67023251523715,48.1141192192632,0 ;
349;237;0587;ZELKOVA_CARPINIFOLIA;ORME_DU_CAUCASE;-1.67124902263804,48.1150443732085,0 ;
350;523;0587;GLEDITSIA_TRIACANTHOS;FEVIER_D_AMERIQUE;-1.6676129384236,48.1143522143154,0 ;
351;303;0587;PLATANUS_ORIENTALIS;PLATANE_D_ORIENT;-1.67123050012164,48.1152248105645,0 ;
352;691;0587;TAXUS_BACCATA;IF_COMMUN;-1.67093713702229,48.1132643644122,0 ;
353;957;0587;POPULUS_NIGRA;PEUPLIER_NOIR;-1.67074267963571,48.112963802187,0 ;
354;1096;0587;QUERCUS_ROBUR;CHENE_PEDONCULE;-1.66953918758524,48.112852308862,0 ;
355;764;0587;CORNUS_MAS;CORNOUILLER_MALE;-1.6709989018672,48.1134062238447,0 ;
358;253;0587;OSTRYA_CARPINIFOLIA;CHARME_HOUBLON;-1.67122826484298,48.1144024530777,0 ;
359;795;0587;AESCULUS_HIPPOCASTANUM;MARRONNIER_COMMUN;-1.67124052889628,48.1133764477059,0 ;
360;714;0587;TAXUS_BACCATA;IF_COMMUN;-1.66997129032072,48.1131150423835,0 ;
361;192;0587;CELTIS_AUSTRALIS;MICOCOULIER_DE_PROVENCE;-1.67207081014414,48.1144531894116,0 ;
362;252;0587;QUERCUS_ROBUR;CHENE_PEDONCULE;-1.67126464854438,48.1144465295107,0 ;
363;482;0587;CERCIS_SILIQUASTRUM;ARBRE_DE_JUDEE;-1.66778217585034,48.1151164352081,0 ;
364;209;0587;AESCULUS_HIPPOCASTANUM;MARRONNIER_COMMUN;-1.67164685809263,48.1152893637404,0 ;
365;211;0587;TILIA_X_EUCHLORA;TILLEUL_DE_CRIMEE;-1.671424019267,48.1153858473796,0 ;
366;479;0587;LAURUS_NOBILIS;LAURIER_SAUCE;-1.66750478815196,48.1150527963207,0 ;
367;751;0587;CORNUS_MAS;CORNOUILLER_MALE;-1.67126123063632,48.1135493320236,0 ;
369;1013;0587;MAGNOLIA_GRANDIFLORA;MAGNOLIA_A_GRANDES_FLEURS;-1.67087840496098,48.1124069632728,0 ;
370;0;;QUERCUS_RUBRA;CHENE_ROUGE;-1.67137493323401,48.1149232501046,0 ;
371;0;;PRUNUS_CERASUS;CERISIER_AIGRE;-1.67155278677222,48.1143120775423,0 ;
372;0;;ILEX_AQUIFOLIUM;HOUX;-1.66756463082063,48.1143121809804,0 ;
373;0;;ILEX_AQUIFOLIUM;HOUX;-1.67064610526841,48.1132056108885,0 ;
374;0;;MESPILUS_GERMANICA ?;NEFLIER_COMMUN;-1.67057244949034,48.1123291348242,0 ;
375;0;;ACER_NEGUNDO;ERABLE_NEGUNDO;-1.67047982670968,48.1132209601599,0 ;
376;0;;FRAXINUS_EXCELSIOR_'PENDULA';FRENE_PLEUREUR;-1.66975133407051,48.1124201794614,0 ;
377;0;;TAXODIUM_DISTICHUM;CYPRES_CHAUVE;-1.6697213684974,48.1129443018578,0 ;
378;0;;TAXUS_BACCATA;IF_COMMUN;-1.66962613704466,48.112783848634,0 ;
379;0;;TAXUS_BACCATA;IF_COMMUN;-1.66956693815476,48.1128286110495,0 ;
380;0;;CORYLUS_AVELLANA_CONTORTA;NOISETIER_'CONTORTA';-1.67015120646076,48.1137528311138,0 ;
381;0;;CORYLUS_AVELLANA_CONTORTA;NOISETIER_'CONTORTA';-1.67008011666125,48.1137506056979,0 ;
382;0;;ACER_JAPONICUM_'ACONITIFOLIUM';ERABLE_DU_JAPON_'ACONITIFOLIUM';-1.67038683396666,48.1138016863065,0 ;
383;0;;BETULA_PENDULA_'DALECARLICA';BOULEAU_BLANC_D_EUROPE_'DALECARLICA';-1.66728160911676,48.1138700719407,0 ;
384;0;;MAGNOLIA_VIRGINIANA;MAGNOLIA_DE_VIRGINIE;-1.66941948632876,48.1133078427723,0 ;
385;0;;SEQUOIADENDRON_GIGANTEUM;SEQUOIA_GEANT;-1.66968389205598,48.1134194722782,0 ;
386;0;;LIRIODENDRON_TULIPIFERA;TULIPIER_DE_VIRGINIE;-1.66955042351238,48.1139698125963,0 ;
387;0;;ACER_PLATANOIDES;ERABLE_A_FEUILLES_DE_PLATANE;-1.6689961106101,48.113919510553,0 ;
388;0;;CHAMAECYPARIS_NOOTKATENSIS_'GRAYSWOOD_PILLAR';CYPRES_DE_NOOTKA_'GRAYSWOOD_PILLAR';-1.67016666445355,48.1145015058664,0 ;
389;0;;PRUNUS_CERASIFERA_'NIGRA';CERISIER_A_FLEURS;-1.66765706124657,48.1151263075501,0 ;
390;0;;ILEX_AQUIFOLIUM;HOUX;-1.66751645998849,48.115115217907,0 ;
391;0;;EUCOMMIA_ULMOIDES;EUCOMMIA_ULMOIDES;-1.66666972890479,48.1145682548151,0 ;
392;0;;JUGLANS_REGIA_'LACINIATA';NOYER_COMMUN_'LACINIATA';-1.66698118775988,48.1145753332648,0 ;
393;0;;SYRINGA_VULGARIS;LILAS_COMMUN;-1.66746657075722,48.1147849205462,0 ;
394;530;0587;ILEX_AQUIFOLIUM;HOUX;-1.66819252767897,48.1137812140143,0 ;
395;975;0587;PRUNUS_CERASIFERA_'PISSARDII';PRUNIER_A_FLEURS;-1.67021677021524,48.1125568854425,0 ;
396;1203;0587;MAGNOLIA_GRANDIFLORA;MAGNOLIA_A_GRANDES_FLEURS;-1.66813960424134,48.115162934223,0 ;
397;248;0587;QUERCUS_ROBUR;CHENE_PEDONCULE;-1.67131051749403,48.1146461966196,0 ;
399;827;0587;TRACHYCARPUS_FORTUNEI;PALMIER_DE_CHINE;-1.67030682683617,48.1133702683704,0 ;
400;229;0587;AESCULUS_HIPPOCASTANUM;MARRONNIER_COMMUN;-1.67140174592244,48.1143771075577,0 ;
401;863;0587;MAGNOLIA_X_SOULANGEANA;MAGNOLIA_DE_SOULANGE;-1.66933207950611,48.1133547705137,0 ;
402;371;0587;QUERCUS_FRAINETTO;CHENE_DE_HONGRIE;-1.67034423129166,48.115193961235,0 ;
403;568;0587;QUERCUS_CERRIS;CHENE_CHEVELU;-1.67103895030788,48.1140977842349,0 ;
404;145;0587;AESCULUS_HIPPOCASTANUM;MARRONNIER_COMMUN;-1.67339946544116,48.1143397107491,0 ;
405;721;0587;JUNIPERUS_CHINENSIS;GENEVRIER_DE_CHINE;-1.67047055322887,48.1130044341832,0 ;
407;218;0587;TILIA_X_EUCHLORA;TILLEUL_DE_CRIMEE;-1.67093269523743,48.115420915996,0 ;
408;236;0587;AESCULUS_HIPPOCASTANUM;MARRONNIER_COMMUN;-1.67144967450462,48.1147396710013,0 ;
409;319;0587;QUERCUS_ROBUR;CHENE_PEDONCULE;-1.67070874847288,48.1144227598101,0 ;
462;328;0587;QUERCUS_ROBUR;CHENE_PEDONCULE;-1.67051737361408,48.1146339538495,0 ;
463;612;0587;QUERCUS_ROBUR;CHENE_PEDONCULE;-1.67106713012862,48.1139011696441,0 ;
464;223;0587;TILIA_X_EUCHLORA;TILLEUL_DE_CRIMEE;-1.67129065143974,48.1154495599365,0 ;
465;639;0587;CORYLUS_AVELLANA_CONTORTA;NOISETIER_'CONTORTA';-1.67009505694762,48.1137302718186,0 ;
466;633;0587;SALIX_VIMINALIS;SAULE_DES_VANNIERS;-1.67028485539337,48.1136131301915,0 ;
467;305;0587;PLATANUS_ORIENTALIS;PLATANE_D_ORIENT;-1.67110847021788,48.1152908367351,0 ;
468;381;0587;QUERCUS_PETRAEA;CHENE_SESSILE;-1.67066201515824,48.1152512607962,0 ;
469;154;0587;AESCULUS_HIPPOCASTANUM;MARRONNIER_COMMUN;-1.67302058178372,48.1143964994877,0 ;
470;815;0587;AESCULUS_HIPPOCASTANUM;MARRONNIER_COMMUN;-1.67066681991232,48.1131628562416,0 ;
471;866;0587;TILIA_TOMENTOSA;TILLEUL_ARGENTE;-1.66921000362549,48.1133936952198,0 ;
472;1071;0587;PRUNUS_CERASIFERA_'NIGRA';CERISIER_A_FLEURS;-1.66917346563774,48.1127744042056,0 ;
473;802;0587;CARPINUS_BETULUS;CHARME;-1.67124729344849,48.1132958128128,0 ;
474;728;0587;CUPRESSUS_SEMPERVIRENS;CYPRES_DE_PROVENCE;-1.67127294995966,48.1136096168564,0 ;
475;212;0587;TILIA_X_EUCHLORA;TILLEUL_DE_CRIMEE;-1.67135121197214,48.1153796916801,0 ;
476;1188;0587;AESCULUS_HIPPOCASTANUM;MARRONNIER_COMMUN;-1.67173601467014,48.1139298669108,0 ;
477;844;0587;CUPRESSUS ?;CYPRES?;-1.67008052550395,48.1130275751382,0 ;
478;265;0587;AESCULUS_HIPPOCASTANUM;MARRONNIER_COMMUN;-1.67093032358626,48.1148744689217,0 ;
479;476;0587;ILEX_AQUIFOLIUM;HOUX;-1.66730450746978,48.1150518013995,0 ;
480;557;0587;QUERCUS_PALUSTRIS;CHENE_DES_MARAIS;-1.6712293732748,48.1141617765681,0 ;
481;149;0587;AESCULUS_HIPPOCASTANUM;MARRONNIER_COMMUN;-1.67340823614115,48.1142135458626,0 ;
482;808;0587;AESCULUS_HIPPOCASTANUM;MARRONNIER_COMMUN;-1.6712222276172,48.1131238870048,0 ;
483;200;0587;CELTIS_AUSTRALIS;MICOCOULIER_DE_PROVENCE;-1.67156676354726,48.114591159371,0 ;
484;555;0587;QUERCUS_ROBUR;CHENE_PEDONCULE;-1.67116592912061,48.1142396661509,0 ;
485;398;0587;QUERCUS_PETRAEA;CHENE_SESSILE;-1.66953430512386,48.1146030746822,0 ;
486;559;0587;QUERCUS_ROBUR;CHENE_PEDONCULE;-1.67115158628886,48.1141608330498,0 ;
487;389;0587;CEDRUS_ATLANTICA_'GLAUCA';CEDRE_DE_L_ATLAS_'GLAUCA';-1.67012391257923,48.1153623857493,0 ;
488;352;0587;SAMBUCUS_NIGRA;SUREAU_NOIR;-1.66999374261561,48.1145625280046,0 ;
489;1119;0587;AESCULUS_HIPPOCASTANUM;MARRONNIER_COMMUN;-1.67151943800348,48.1153040735805,0 ;
490;1160;0587;AESCULUS_HIPPOCASTANUM;MARRONNIER_COMMUN;-1.67343124192267,48.1137476194634,0 ;
704;287;0587;QUERCUS_CERRIS;CHENE_CHEVELU;-1.67090785181874,48.1144224386258,0 ;
705;1686;0587;FRAXINUS_ORNUS;FRENE_A_FLEURS;-1.67167655054312,48.1154425827357,0 ;
706;566;0587;QUERCUS_CERRIS;CHENE_CHEVELU;-1.67102938122868,48.1140357153307,0 ;
707;705;0587;TAXUS_BACCATA;IF_COMMUN;-1.67026190556184,48.1131865060348,0 ;
708;384;0587;TILIA_X_EUCHLORA;TILLEUL_DE_CRIMEE;-1.67055005105537,48.1153188328124,0 ;
709;508;0587;HOVENIA_DULCIS;RAISINIER_DE_CHINE;-1.66715654360396,48.1143355634581,0 ;
710;1076;0587;BETULA_PENDULA;BOULEAU_BLANC_D_EUROPE;-1.66936509498143,48.112834936213,0 ;
711;661;0587;CEDRUS_LIBANII;CEDRE_DU_LIBAN;-1.670655370425,48.1134802696869,0 ;
713;282;0587;QUERCUS_PALUSTRIS;CHENE_DES_MARAIS;-1.67092824085476,48.1145047565668,0 ;
714;787;0587;ULMUS_LAEVIS;ORME_LISSE;-1.67108183734342,48.1132400612867,0 ;
715;340;0587;QUERCUS_ROBUR;CHENE_PEDONCULE;-1.67047098426198,48.1147098202837,0 ;
716;343;0587;TAXUS_BACCATA;IF_COMMUN;-1.67034229107,48.1146266109822,0 ;
717;723;0587;TAXUS_BACCATA_'FASTIGIATA';IF_COMMUN_FASTIGIE;-1.67127449514797,48.1137304848246,0 ;
718;770;0587;QUERCUS_ROBUR;CHENE_PEDONCULE;-1.67086133424018,48.1133459186482,0 ;
719;995;0587;MAGNOLIA_GRANDIFLORA;MAGNOLIA_A_GRANDES_FLEURS;-1.67125642955923,48.1124169131464,0 ;
720;245;0587;OSTRYA_CARPINIFOLIA;CHARME_HOUBLON;-1.6713324245362,48.1147519617477,0 ;
721;657;0587;AESCULUS_CARNEA;MARRONNIER_ROUGE;-1.67075006665171,48.1136273063143,0 ;
722;895;0587;ALNUS_CORDATA;AULNE_DE_CORSE;-1.66899862710434,48.11326811016,0 ;
723;640;0587;VIBURNUM_TINUS;VIORNE_TIN;-1.67004472910195,48.1137191160646,0 ;
724;953;0587;JUNIPERUS_CHINENSIS;GENEVRIER_DE_CHINE;-1.67068773574783,48.1125072978242,0 ;
725;1192;0587;AESCULUS_HIPPOCASTANUM;MARRONNIER_COMMUN;-1.67341944477536,48.1140154467052,0 ;
726;727;0587;CUPRESSUS_SEMPERVIRENS;CYPRES_DE_PROVENCE;-1.6712714852497,48.1136345179455,0 ;
727;214;0587;TILIA_X_EUCHLORA;TILLEUL_DE_CRIMEE;-1.67120577537376,48.1153697156946,0 ;
728;703;0587;TAXUS_BACCATA;IF_COMMUN;-1.67018345141262,48.1132579754848,0 ;
729;872;0587;ACER_PSEUDOPLATANUS;ERABLE_SYCOMORE;-1.66893321041321,48.1137544758406,0 ;
730;1070;0587;PRUNUS ?;PRUNUS?;-1.66920733802835,48.1127637036007,0 ;
731;626;0587;FAGUS_SYLVATICA;HETRE;-1.66981036898441,48.1141518766726,0 ;
732;1094;0587;TAXUS_BACCATA;IF_COMMUN;-1.66949402036527,48.1129159780036,0 ;
733;1100;0587;CRATAEGUS_SP.;?;-1.66960136211934,48.1128530656421,0 ;
734;1102;0587;BETULA_PENDULA;BOULEAU_BLANC_D_EUROPE;-1.66956900903572,48.1129931891043,0 ;
491;233;0587;AESCULUS_HIPPOCASTANUM;MARRONNIER_COMMUN;-1.67142799193114,48.1145751028848,0 ;
492;665;0587;TAXUS_BACCATA;IF_COMMUN;-1.67100907748495,48.1134833087647,0 ;
493;0;0587;CARPINUS_BETULUS_'QUERCIFOLIA';CHARME_A_FEUILLES_DE_CHENE;-1.66819587250223,48.1139628847737,0 ;
494;0;;PRUNUS_LUSITANICA;LAURIER_DU_PORTUGAL;-1.67173013321907,48.1144186172313,0 ;
495;0;;QUERCUS_PUBESCENS ?;CHENE_PUBESCENT?;-1.6712378956886,48.112489229044,0 ;
496;0;;ILEX_AQUIFOLIUM;HOUX;-1.67074785201005,48.1131842684549,0 ;
497;0;;ILEX_AQUIFOLIUM;HOUX;-1.67064194474391,48.1130602788371,0 ;
498;0;;TAXUS_BACCATA;IF_COMMUN;-1.67085523129008,48.1125133721049,0 ;
499;0;;ILEX_AQUIFOLIUM;HOUX;-1.67094735105598,48.1124227227669,0 ;
500;0;;CORYLUS_AVELLANA;NOISETIER;-1.67024149504652,48.1130699707979,0 ;
501;0;;PRUNUS_SUBHIRTELLA_'PENDULA_ROSEA';CERISIER_A_FLEURS_PLEUREUR;-1.66985294355308,48.1132712517359,0 ;
502;0;;ERIOBOTRYA_JAPONICA;NEFLIER_DU_JAPON;-1.67035784070547,48.1133069795541,0 ;
503;0;;ILEX_AQUIFOLIUM;HOUX;-1.66929327700646,48.1132508914679,0 ;
504;0;;CUPRESSUS_ARIZONICA;CYPRES_DE_L_ARIZONA;-1.66952377342253,48.1128457001482,0 ;
505;0;;PARROTIA_PERSICA;PARROTIE_DE_PERSE;-1.66889418599361,48.113504448888,0 ;
506;0;;ACER_JAPONICUM_'ACONITIFOLIUM';ERABLE_DU_JAPON_'ACONITIFOLIUM';-1.67043582852143,48.113812842007,0 ;
507;0;;CORYLUS_AVELLANA;NOISETIER;-1.66878747511442,48.1136387769369,0 ;
508;0;;ILEX_AQUIFOLIUM;HOUX;-1.66828439170603,48.1137556039256,0 ;
509;0;;BETULA_PENDULA_'DALECARLICA';BOULEAU_BLANC_D_EUROPE_'DALECARLICA';-1.66735006471921,48.1138672933555,0 ;
510;0;;ABIES_NORDMANNIANA;SAPIN_DU_CAUCASE;-1.66898144518695,48.1136250585573,0 ;
511;0;;MAGNOLIA_X_SOULANGEANA;MAGNOLIA_DE_SOULANGE;-1.66926549296509,48.1133776331097,0 ;
512;0;;CEDRUS_ATLANTICA_'AUREA';CEDRE_DE_L_ATLAS_'AUREA';-1.66944474645489,48.1134302399255,0 ;
513;0;;CALOCEDRUS_DECURRENS_'AUREAVARIEGATA';CEDRE_A_L_ENCENS_'AUREAVARIEGATA';-1.66980680601675,48.1134164305151,0 ;
514;0;;PICEA_ORIENTALIS;SAPIN_DU_CAUCASE;-1.66990905232248,48.1137553266002,0 ;
515;0;;FAGUS_SYLVATICA_'ATROPURPUREA';HETRE_'ATROPURPUREA';-1.66984793308246,48.1140046907285,0 ;
516;0;;SEQUOIA_SEMPERVIRENS;SEQUOIA_A_FEUILLES_D_IF;-1.66826438609439,48.1142092105642,0 ;
517;0;;LARIX_KAEMPFERI;MELEZE_DU_JAPON;-1.66875456351464,48.114046167682,0 ;
518;0;;ACER_PSEUDOPLATANUS;ERABLE_SYCOMORE;-1.66893516212809,48.1138847387613,0 ;
519;0;;PTEROCARYA_FRAXINIFOLIA;PTEROCARYER_DU_CAUCASE;-1.66676215523955,48.1145411337499,0 ;
520;0;;CORNUS_FLORIDA;CORNOUILLER_A_FLEURS;-1.66781171725499,48.1147320870988,0 ;
522;264;0587;QUERCUS_PALUSTRIS;CHENE_DES_MARAIS;-1.67093604375892,48.1149230736087,0 ;
523;746;0587;TAXUS_BACCATA;IF_COMMUN;-1.67123541937517,48.1129881996659,0 ;
524;291;0587;QUERCUS_PALUSTRIS;CHENE_DES_MARAIS;-1.67090863328661,48.1143585751442,0 ;
526;575;0587;QUERCUS_CERRIS;CHENE_CHEVELU;-1.67078873081093,48.1140571749025,0 ;
527;771;0587;QUERCUS_ROBUR;CHENE_PEDONCULE;-1.6707663401726,48.1133520453464,0 ;
528;785;0587;FRAXINUS_EXCELSIOR;FRENE_COMMUN;-1.67106471746108,48.1132659470431,0 ;
529;390;0587;CEDRUS_ATLANTICA_'GLAUCA';CEDRE_DE_L_ATLAS_'GLAUCA';-1.67007964608524,48.1153655189142,0 ;
530;1001;0587;ILEX_AQUIFOLIUM;HOUX;-1.67124102535048,48.1127635443074,0 ;
531;504;0587;QUERCUS_CERRIS;CHENE_CHEVELU;-1.66701638729359,48.1143100967417,0 ;
532;339;0587;QUERCUS_ROBUR;CHENE_PEDONCULE;-1.67045876430406,48.1146588268415,0 ;
533;544;0587;BETULA_PENDULA;BOULEAU_BLANC_D_EUROPE;-1.66625183431667,48.1142741603046,0 ;
534;292;0587;QUERCUS_ROBUR;CHENE_PEDONCULE;-1.67080011042534,48.1143459864826,0 ;
535;717;0587;TAXUS_BACCATA;IF_COMMUN;-1.67005619505283,48.1131194342863,0 ;
536;316;0587;QUERCUS_ROBUR;CHENE_PEDONCULE;-1.67074543732122,48.114574299901,0 ;
537;238;0587;QUERCUS_ROBUR;CHENE_PEDONCULE;-1.67138426245848,48.1149999539929,0 ;
538;534;0587;CRYPTOMERIA_JAPONICA;CRYPTOMERIA_DU_JAPON;-1.66782775214543,48.1138588573472,0 ;
539;935;0587;THUJA_PLICATA_'ATROVIRENS';THUYA_GEANT;-1.66832499478466,48.1137392338697,0 ;
540;520;0587;QUERCUS_ROBUR;CHENE_PEDONCULE;-1.66760253526176,48.1140406800512,0 ;
541;258;0587;PLATANUS_X_ACERIFOLIA;PLATANE_A_FEUILLES_D_ERABLE;-1.67108634885121,48.1150446198335,0 ;
542;765;0587;ILEX_AQUIFOLIUM;HOUX;-1.67095658385195,48.1134596219131,0 ;
543;790;0587;CORNUS_MAS;CORNOUILLER_MALE;-1.67108939900367,48.1131857809482,0 ;
544;144;0587;AESCULUS_HIPPOCASTANUM;MARRONNIER_COMMUN;-1.67339775649225,48.1144075001888,0 ;
545;865;0587;MAGNOLIA_X_SOULANGEANA;MAGNOLIA_DE_SOULANGE;-1.66930112394739,48.1133755464791,0 ;
546;722;0587;CEDRUS_DEODARA;CEDRE_DE_L_HIMALAYA_;-1.67108485190957,48.1130660963887,0 ;
547;737;0587;TAXUS_BACCATA;IF_COMMUN;-1.67125890595937,48.1132735369796,0 ;
548;901;0587;CHAMAECYPARIS_LAWSONIANA;CYPRES_DE_LAWSON;-1.66932909045687,48.1132343118425,0 ;
549;617;0587;QUERCUS_ROBUR;CHENE_PEDONCULE;-1.6707868153592,48.1139173220779,0 ;
550;410;0587;AESCULUS_HIPPOCASTANUM;MARRONNIER_COMMUN;-1.67146925579765,48.1148890044955,0 ;
551;615;0587;QUERCUS_ROBUR;CHENE_PEDONCULE;-1.67089086441166,48.1139117854226,0 ;
552;542;0587;BETULA_PENDULA;BOULEAU_BLANC_D_EUROPE;-1.66629720015834,48.1143314058445,0 ;
553;883;0587;ABIES_GRANDIS;SAPIN_DE_L_OREGON;-1.66909005121024,48.1136759183416,0 ;
554;903;0587;TAXUS_BACCATA;IF_COMMUN;-1.66937932265203,48.1130588235824,0 ;
555;368;0587;MAGNOLIA_GRANDIFLORA;MAGNOLIA_A_GRANDES_FLEURS;-1.66965771843694,48.1151395337869,0 ;
556;643;0587;PYRUS_CALLERYANA_'BRADFORD';POIRIER_DE_CHINE_'BRADFORD';-1.67007156991442,48.1137008218577,0 ;
558;706;0587;PINUS_SYLVESTRIS ?;PIN_SYLVESTRE?;-1.67029620758744,48.1131761507932,0 ;
559;1198;0587;PRUNUS_CERASIFERA_'NIGRA';CERISIER_A_FLEURS;-1.671475631625,48.1143744924999,0 ;
560;203;0587;CELTIS_AUSTRALIS;MICOCOULIER_DE_PROVENCE;-1.6716439311421,48.1144586874955,0 ;
561;308;0587;QUERCUS_ROBUR;CHENE_PEDONCULE;-1.6708322074225,48.1149773133698,0 ;
562;354;0587;MAGNOLIA_X_SOULANGEANA;MAGNOLIA_DE_SOULANGE;-1.66993696422765,48.1144808236827,0 ;
563;240;0587;QUERCUS_CERRIS;CHENE_CHEVELU;-1.6713709182411,48.1148989383639,0 ;
564;1079;0587;ILEX_AQUIFOLIUM;HOUX;-1.66945692503578,48.1127802075444,0 ;
565;274;0587;QUERCUS_CERRIS;CHENE_CHEVELU;-1.67096142909669,48.1146827067782,0 ;
566;370;0587;QUERCUS_PETRAEA;CHENE_SESSILE;-1.67027436571719,48.1151946371365,0 ;
567;1022;0587;MAGNOLIA_GRANDIFLORA;MAGNOLIA_A_GRANDES_FLEURS;-1.67060509223705,48.1122943017333,0 ;
568;567;0587;QUERCUS_CERRIS;CHENE_CHEVELU;-1.67103475332501,48.114067405772,0 ;
569;1210;0587;ILEX_AQUIFOLIUM;HOUX;-1.66841860117547,48.1151576377352,0 ;
570;597;0587;QUERCUS_PETRAEA;CHENE_SESSILE;-1.67040617734493,48.1141732502327,0 ;
571;283;0587;QUERCUS_ROBUR;CHENE_PEDONCULE;-1.67083960241382,48.1145025632033,0 ;
573;449;0587;MALUS_FLORIBUNDA;POMMIER_A_FLEURS;-1.66775305257639,48.1146049365083,0 ;
574;889;0587;PRUNUS_SUBHIRTELLA_'AUTUMNALIS';CERISIER_A_FLEURS_'AUTUMNALIS';-1.66887534814197,48.1135454942085,0 ;
575;373;0587;QUERCUS_FRAINETTO;CHENE_DE_HONGRIE;-1.67047696611129,48.1151907759571,0 ;
576;656;0587;MORUS_NIGRA;MURIER_NOIR;-1.67088311710828,48.113675972227,0 ;
577;830;0587;TRACHYCARPUS_FORTUNEI;PALMIER_DE_CHINE;-1.67024878358925,48.1133743225568,0 ;
578;619;0587;QUERCUS_ROBUR;CHENE_PEDONCULE;-1.67067809435255,48.1139232880923,0 ;
579;275;0587;QUERCUS_ROBUR;CHENE_PEDONCULE;-1.67087852323666,48.1146710437115,0 ;
580;342;0587;PARTHENOCISSUS_QUINQUEFOLIA;VIGNE_VIERGE_DE_VIRGINIE;-1.67031727582678,48.1147359606667,0 ;
581;698;0587;CEDRUS_ATLANTICA;CEDRE_DE_L_ATLAS;-1.67045447063055,48.1132610505042,0 ;
582;618;0587;QUERCUS_ROBUR;CHENE_PEDONCULE;-1.67073016429211,48.1139202485618,0 ;
583;1117;0587;CRYPTOMERIA_JAPONICA;CRYPTOMERIA_DU_JAPON;-1.66970336326213,48.1128789333856,0 ;
584;487;0587;CEDRUS_LIBANII;CEDRE_DU_LIBAN;-1.66790412464181,48.1145317997254,0 ;
585;742;0587;TAXUS_BACCATA;IF_COMMUN;-1.67124867781034,48.113192221875,0 ;
586;425;0587;PICEA_ABIES;EPICEA_COMMUN;-1.66706031104457,48.1144703041318,0 ;
587;822;0587;ERIOBOTRYA_JAPONICA;NEFLIER_DU_JAPON;-1.67037798927489,48.113284282331,0 ;
588;902;0587;CEDRUS_ATLANTICA;CEDRE_DE_L_ATLAS;-1.66946040708777,48.113101342976,0 ;
589;450;0587;KOELREUTERIA_PANICULATA;SAVONNIER;-1.66766358822138,48.1145053490786,0 ;
590;1109;0587;CEDRUS_ATLANTICA;CEDRE_DE_L_ATLAS;-1.67065512483332,48.1129052082966,0 ;
591;206;0587;AESCULUS_HIPPOCASTANUM;MARRONNIER_COMMUN;-1.67162058882359,48.1151299045275,0 ;
592;535;0587;SORBUS_TORMINALIS;ALISIER_TORMINAL;-1.66777977659527,48.1138150270505,0 ;
593;836;0587;CARPINUS_BETULUS_'FASTIGIATA';CHARME_FASTIGIE;-1.67029627461255,48.1130375807868,0 ;
594;331;0587;QUERCUS_ROBUR;CHENE_PEDONCULE;-1.67048144127674,48.1144623098761,0 ;
595;596;0587;QUERCUS_ROBUR;CHENE_PEDONCULE;-1.67043139712004,48.1142448682636,0 ;
596;295;0587;TAXUS_BACCATA;IF_COMMUN;-1.67083309931233,48.1143748422092,0 ;
597;1115;0587;CHAMAECYPARIS_LAWSONIANA;CYPRES_DE_LAWSON;-1.66985072519843,48.1127607215422,0 ;
599;620;0587;QUERCUS_ROBUR;CHENE_PEDONCULE;-1.67062352033862,48.1139252435036,0 ;
601;690;0587;TAXUS_BACCATA;IF_COMMUN;-1.67087123459452,48.1132376251489,0 ;
602;324;0587;QUERCUS_ROBUR;CHENE_PEDONCULE;-1.67057788809517,48.1148847115846,0 ;
603;755;0587;ILEX_AQUIFOLIUM;HOUX;-1.67102142989376,48.1136172222058,0 ;
604;794;0587;AESCULUS_HIPPOCASTANUM;MARRONNIER_COMMUN;-1.6712393850215,48.1134002562804,0 ;
605;719;0587;PICEA_PUNGENS_'KOSTER';EPICEA_BLEU_'KOSTER';-1.67002948892121,48.1129418018486,0 ;
606;700;0587;JUNIPERUS_CHINENSIS;GENEVRIER_DE_CHINE;-1.67037098140795,48.1131234450205,0 ;
607;377;0587;QUERCUS_PETRAEA;CHENE_SESSILE;-1.67028069725865,48.1152583477416,0 ;
608;545;0587;BETULA_PENDULA;BOULEAU_BLANC_D_EUROPE;-1.66621695227349,48.1142645458655,0 ;
609;732;0587;CUPRESSUS_SEMPERVIRENS;CYPRES_DE_PROVENCE;-1.67127145339334,48.1135211610858,0 ;
610;362;0587;MAGNOLIA_GRANDIFLORA;MAGNOLIA_A_GRANDES_FLEURS;-1.66989802038325,48.1151363655258,0 ;
611;412;0587;ALBIZIA_JULIBRISSIN;ARBRE_A_SOIE;-1.66664572726242,48.1149041208932,0 ;
612;1152;0587;AESCULUS_HIPPOCASTANUM;MARRONNIER_COMMUN;-1.67211854735942,48.1139452332077,0 ;
613;692;0587;TAXUS_BACCATA;IF_COMMUN;-1.67088106015823,48.1132871695933,0 ;
614;577;0587;CARPINUS_BETULUS;CHARME;-1.67079596563729,48.1141680342083,0 ;
615;310;0587;QUERCUS_ROBUR;CHENE_PEDONCULE;-1.67081085220625,48.1148858446616,0 ;
616;395;0587;GINKGO_BILOBA;ARBRE_AUX_QUARANTE_ECUS;-1.6695127297606,48.1147223007087,0 ;
617;171;0587;AESCULUS_HIPPOCASTANUM;MARRONNIER_COMMUN;-1.67274111219433,48.1144361275699,0 ;
618;909;0587;ILEX_AQUIFOLIUM;HOUX;-1.66876997718247,48.113659029755,0 ;
619;498;0587;CEDRUS_DEODARA;CEDRE_DE_L_HIMALAYA_;-1.66612655582086,48.1146615446039,0 ;
620;204;0587;PHILLYREA_LATIFOLIA;FILAIRE_A_FEUILLES_LARGES;-1.67168886023996,48.1144289695466,0 ;
621;1090;0587;PRUNUS_CERASIFERA_'NIGRA';CERISIER_A_FLEURS;-1.66922417733816,48.1129318583684,0 ;
622;1099;0587;CRATAEGUS ?;AUBEPINE?;-1.66961784952025,48.1128665482642,0 ;
623;174;0587;AESCULUS_HIPPOCASTANUM;MARRONNIER_COMMUN;-1.67245247715631,48.1144031370915,0 ;
625;630;0587;ACER_JAPONICUM;ERABLE_DU_JAPON;-1.6704480113985,48.1137269456652,0 ;
626;510;0587;TRACHYCARPUS_FORTUNEI;PALMIER_DE_CHINE;-1.6671057753986,48.1141543416912,0 ;
627;1107;0587;THUJA_PLICATA ?;THUYA_GEANT_DE_CALIFORNIE?;-1.67066054594803,48.1127963470747,0 ;
628;335;0587;QUERCUS_ROBUR;CHENE_PEDONCULE;-1.67041428879837,48.1144209363605,0 ;
629;280;0587;QUERCUS_PALUSTRIS;CHENE_DES_MARAIS;-1.6709056941592,48.1145599996834,0 ;
630;570;0587;QUERCUS_CERRIS;CHENE_CHEVELU;-1.67096434973178,48.1140751233393,0 ;
631;344;0587;TAXUS_BACCATA;IF_COMMUN;-1.67023579691827,48.1146477168335,0 ;
633;318;0587;QUERCUS_ROBUR;CHENE_PEDONCULE;-1.67071979962319,48.1144760443733,0 ;
634;0;;ZELKOVA_CARPINIFOLIA;ORME_DU_CAUCASE;-1.67105359839047,48.1150464322746,0 ;
635;0;;CRATAEGUS_SP.;?;-1.67132085628819,48.115033756355,0 ;
636;0;;PRUNUS_CERASIFERA;CERISIER_A_FLEURS;-1.67127411921377,48.1145490829439,0 ;
637;0;;OSTRYA_CARPINIFOLIA;CHARME_HOUBLON;-1.67128983627331,48.1145217151377,0 ;
638;0;;QUERCUS_ROBUR;CHENE_PEDONCULE;-1.67125389561531,48.1142740015573,0 ;
639;0;;NOTHOFAGUS_ANTARCTICA;HETRE_DE_MAGELLAN;-1.66796858482218,48.1139581713796,0 ;
640;0;;CALOCEDRUS_DECURRENS;CEDRE_A_L_ENCENS;-1.66788120770852,48.1139609939809,0 ;
641;0;;ILEX_AQUIFOLIUM;HOUX;-1.66780324473723,48.114282933793,0 ;
642;0;;MAGNOLIA_GRANDIFLORA;MAGNOLIA_A_GRANDES_FLEURS;-1.66845502269361,48.1151576107012,0 ;
643;0;;CEPHALOTAXUS_HARRINGTONIA;CEPHALOTAXUS_HARRINGTONIA;-1.67118800303723,48.112887913989,0 ;
644;0;;ILEX_AQUIFOLIUM;HOUX;-1.67071285787597,48.1132088338764,0 ;
647;0;;CORYLUS_AVELLANA;NOISETIER;-1.67077125078484,48.1122604436575,0 ;
648;0;;CERCIS_SILIQUASTRUM;ARBRE_DE_JUDEE;-1.66992880441473,48.1132418794537,0 ;
649;0;;EUCOMMIA_ULMOIDES;EUCOMMIA_ULMOIDES;-1.66974214111781,48.1125775703284,0 ;
650;0;;LIRIODENDRON_TULIPIFERA;TULIPIER_DE_VIRGINIE;-1.66927405934535,48.1128098312311,0 ;
651;0;;FAGUS_SYLVATICA_QUERCIFOLIA;HETRE_A_FEUILLES_DE_CHENE;-1.67004182947823,48.112785954583,0 ;
652;0;;CALOCEDRUS_DECURRENS;CEDRE_A_L_ENCENS;-1.66942102865675,48.1132164911092,0 ;
653;0;;HAMAMELIS_MOLLIS;HAMAMELIS_MOLLIS;-1.67010665595301,48.1137546404975,0 ;
654;0;;TAXODIUM_DISTICHUM;CYPRES_CHAUVE;-1.67038389646945,48.1137090558932,0 ;
655;0;;ILEX_AQUIFOLIUM;HOUX;-1.66849535219339,48.1136886139095,0 ;
656;0;;ILEX_AQUIFOLIUM;HOUX;-1.66844704828464,48.1136971483266,0 ;
657;0;;ILEX_AQUIFOLIUM;HOUX;-1.66834609535018,48.1137143926031,0 ;
659;0;;GINKGO_BILOBA;ARBRE_AUX_QUARANTE_ECUS;-1.66915807923343,48.1139618645262,0 ;
660;0;;LARIX_KAEMPFERI;MELEZE_DU_JAPON;-1.6689317099037,48.1140272900004,0 ;
661;0;;LAGERSTROEMIA_INDICA;LILAS_DES_INDES;-1.67019837752479,48.1145747101122,0 ;
663;0;;AILANTHUS_GLANDULOSA;FAUX-VERNIS_DU_JAPON;-1.66663324545658,48.1145748480808,0 ;
664;0;;ROBINIA_VISCOSA;ROBINIER_VISQUEUX;-1.66696159459667,48.1142745091319,0 ;
665;0;;FAGUS_SYLVATICA_'PENDULA';HETRE_PLEUREUR;-1.66962099102469,48.1135687674999,0 ;
666;0;;CORNUS_FLORIDA;CORNOUILLER_A_FLEURS;-1.66789004950992,48.1147053354014,0 ;
667;0;;LAURUS_NOBILIS;LAURIER_SAUCE;-1.6675222494226,48.1148596152227,0 ;
668;266;0587;QUERCUS_PALUSTRIS;CHENE_DES_MARAIS;-1.6709812509911,48.1148899260176,0 ;
669;1204;0587;ILEX_AQUIFOLIUM_'ALBOMARGINATA';HOUX_A_FEUILLES_PANACHEES;-1.66817690611176,48.1151619299235,0 ;
670;725;0587;CUPRESSUS_SEMPERVIRENS;CYPRES_DE_PROVENCE;-1.67127423920502,48.1136724194887,0 ;
671;917;0587;ILEX_AQUIFOLIUM;HOUX;-1.66841064540541,48.113753416573,0 ;
672;355;0587;MAGNOLIA_X_SOULANGEANA;MAGNOLIA_DE_SOULANGE;-1.66999368569684,48.1144929308868,0 ;
674;1012;0587;MAGNOLIA_GRANDIFLORA;MAGNOLIA_A_GRANDES_FLEURS;-1.67095746049988,48.1124016496707,0 ;
675;279;0587;QUERCUS_RUBRA;CHENE_ROUGE;-1.67085211574381,48.1145556180637,0 ;
676;1024;0587;SAMBUCUS_RACEMOSA_'LACINIATA';SUREAU_A_GRAPPES;-1.6706367961603,48.1123751527081,0 ;
677;928;0587;PINUS_NIGRA;PIN_NOIR_D'Autriche;-1.66860348825895,48.1136973998439,0 ;
678;139;0587;AESCULUS_HIPPOCASTANUM;MARRONNIER_COMMUN;-1.67329743174862,48.1143943815261,0 ;
679;708;0587;TAXUS_BACCATA;IF_COMMUN;-1.67016932954463,48.1130796436273,0 ;
680;922;0587;ILEX_AQUIFOLIUM;HOUX;-1.6682757831576,48.1137480276274,0 ;
681;968;0587;LARIX_KAEMPFERI;MELEZE_DU_JAPON;-1.67060840774553,48.1126961169467,0 ;
682;867;0587;POPULUS_TREMULA;PEUPLIER_TREMBLE;-1.66975638992327,48.1128743307927,0 ;
683;871;0587;ACER_PSEUDOPLATANUS;ERABLE_SYCOMORE;-1.66888309448218,48.1137461033927,0 ;
684;551;0587;TAXODIUM_ASCENDENS;CYPRES_CHAUVE;-1.66668371185835,48.1139439269833,0 ;
685;186;0587;CELTIS_AUSTRALIS;MICOCOULIER_DE_PROVENCE;-1.67254824138324,48.1145076382212,0 ;
686;241;0587;QUERCUS_PALUSTRIS;CHENE_DES_MARAIS;-1.67134752238785,48.1148548091986,0 ;
687;191;0587;CRATAEGUS_LAEVIGATA;EPINE_BLANCHE;-1.67211342248616,48.1144565950393,0 ;
688;399;0587;QUERCUS_ROBUR;CHENE_PEDONCULE;-1.66947699758129,48.1146291620969,0 ;
689;1086;0587;CRATAEGUS_SP.;?;-1.66921184426609,48.1130523895706,0 ;
690;540;0587;BETULA_PENDULA;BOULEAU_BLANC_D_EUROPE;-1.66622619907995,48.1143348196007,0 ;
692;388;0587;CEDRUS_ATLANTICA_'GLAUCA';CEDRE_DE_L_ATLAS_'GLAUCA';-1.67016995908052,48.1153561301585,0 ;
693;185;0587;SOPHORA_JAPONICA;SOPHORA_DU_JAPON;-1.67267873326971,48.1145120906357,0 ;
694;301;0587;PLATANUS_ORIENTALIS;PLATANE_D_ORIENT;-1.67134120971328,48.1151654741171,0 ;
695;864;0587;MAGNOLIA_X_SOULANGEANA;MAGNOLIA_DE_SOULANGE;-1.66933006003977,48.1133723963174,0 ;
696;235;0587;AESCULUS_HIPPOCASTANUM;MARRONNIER_COMMUN;-1.6714418223897,48.1146824954538,0 ;
698;369;0587;ILEX_AQUIFOLIUM;HOUX;-1.66961957933583,48.1151419169604,0 ;
699;875;0587;ACER_PSEUDOPLATANUS;ERABLE_SYCOMORE;-1.66902478469705,48.1137881734857,0 ;
700;430;0587;ABIES_PINSAPO;SAPIN_D_ESPAGNE;-1.66698240652819,48.1145313973642,0 ;
701;707;0587;CEDRUS_DEODARA;CEDRE_DE_L_HIMALAYA_;-1.67014062738279,48.1131758838407,0 ;
702;314;0587;QUERCUS_ROBUR;CHENE_PEDONCULE;-1.67076683894526,48.114678732214,0 ;
703;1195;0587;AESCULUS_HIPPOCASTANUM;MARRONNIER_COMMUN;-1.67342559652173,48.1138834429796,0 ;
735;1143;0587;AESCULUS_HIPPOCASTANUM;MARRONNIER_COMMUN;-1.67257824382327,48.1139005528827,0 ;
736;182;0587;AESCULUS_HIPPOCASTANUM;MARRONNIER_COMMUN;-1.67170458236072,48.1143176866469,0 ;
737;616;0587;QUERCUS_ROBUR;CHENE_PEDONCULE;-1.67083788649089,48.1139135057998,0 ;
738;876;0587;ACER_PSEUDOPLATANUS;ERABLE_SYCOMORE;-1.66901967666885,48.1137440492542,0 ;
739;436;0587;TAXUS_BACCATA;IF_COMMUN;-1.66675594875173,48.1145026632176,0 ;
741;798;0587;ILEX_AQUIFOLIUM;HOUX;-1.67119999351014,48.1133402873405,0 ;
743;491;0587;SEQUOIADENDRON_GIGANTEUM;SEQUOIA_GEANT;-1.66853470110657,48.1145439396482,0 ;
744;1182;0587;AESCULUS_HIPPOCASTANUM;MARRONNIER_COMMUN;-1.6720072641899,48.1138988469926,0 ;
745;543;0587;BETULA_PENDULA;BOULEAU_BLANC_D_EUROPE;-1.66625902320221,48.114306778208,0 ;
746;1167;0587;AESCULUS_HIPPOCASTANUM;MARRONNIER_COMMUN;-1.67294295378589,48.1137987418833,0 ;
747;215;0587;TILIA_X_EUCHLORA;TILLEUL_DE_CRIMEE;-1.67113402781276,48.1153633447067,0 ;
749;378;0587;QUERCUS_PETRAEA;CHENE_SESSILE;-1.67034827694821,48.1152576592559,0 ;
750;547;0587;PINUS_WALLICHIANA;PIN_DE_L_HIMALAYA;-1.66620050727303,48.1140979086979,0 ;
752;668;0587;TAXUS_BACCATA;IF_COMMUN;-1.67094603821117,48.1133900227884,0 ;
753;858;0587;ILEX_AQUIFOLIUM;HOUX;-1.6693297588367,48.1131600988513,0 ;
754;628;0587;FAGUS_SYLVATICA_'ATROPURPUREA';HETRE_'ATROPURPUREA';-1.6696732833537,48.1140975380661,0 ;
755;685;0587;TAXUS_BACCATA;IF_COMMUN;-1.67113623472501,48.1131881412894,0 ;
756;763;0587;ILEX_AQUIFOLIUM;HOUX;-1.67103238462351,48.1134080507834,0 ;
757;511;0587;PINUS_RADIATA;PIN_DE_MONTEREY;-1.66685576416582,48.1143407904881,0 ;
758;225;0587;TILIA_X_EUCHLORA;TILLEUL_DE_CRIMEE;-1.67143340155758,48.1154613380699,0 ;
759;644;0587;ILEX_CORNUTA;?;-1.67002922982122,48.1136815591554,0 ;
760;695;0587;PRUNUS_SP;?;-1.67058042322886,48.1132500839208,0 ;
761;1106;0587;TAXUS_BACCATA;IF_COMMUN;-1.67072298355352,48.1128164529362,0 ;
762;163;0587;AESCULUS_HIPPOCASTANUM;MARRONNIER_COMMUN;-1.67218095683215,48.1143141878808,0 ;
763;501;0587;QUERCUS_CANARIENSIS;CHENE_DES_CANARIES;-1.66710020568648,48.1143655785962,0 ;
764;756;0587;CORNUS_MAS;CORNOUILLER_MALE;-1.67099887086338,48.1136158327623,0 ;
765;164;0587;AESCULUS_HIPPOCASTANUM;MARRONNIER_COMMUN;-1.67207978108824,48.1143045015903,0 ;
767;598;0587;QUERCUS_ROBUR;CHENE_PEDONCULE;-1.67039359897595,48.1141069621836,0 ;
768;296;0587;QUERCUS_RUBRA;CHENE_ROUGE;-1.67079331947414,48.1143027307801,0 ;
769;731;0587;CUPRESSUS_SEMPERVIRENS;CYPRES_DE_PROVENCE;-1.67127493825754,48.1135457124256,0 ;
770;910;0587;ACER_PSEUDOPLATANUS;ERABLE_SYCOMORE;-1.66870280773431,48.1136633041119,0 ;
771;374;0587;QUERCUS_FRAINETTO;CHENE_DE_HONGRIE;-1.67054169606621,48.1151897345434,0 ;
772;926;0587;TAXUS_BACCATA;IF_COMMUN;-1.66868983678448,48.1136889579296,0 ;
773;624;0587;SEQUOIADENDRON_GIGANTEUM;SEQUOIA_GEANT;-1.66963145342416,48.114335676183,0 ;
774;213;0587;TILIA_X_EUCHLORA;TILLEUL_DE_CRIMEE;-1.6712788033876,48.1153752335722,0 ;
775;607;0587;QUERCUS_ROBUR;CHENE_PEDONCULE;-1.67063490475534,48.1140888125918,0 ;
777;0;;AESCULUS_HIPPOCASTANUM;MARRONNIER_COMMUN;-1.67331059009709,48.1138335203207,0 ;
779;0;;CHAMAECYPARIS_LAWSONIANA;CYPRES_DE_LAWSON;-1.66772905718346,48.1139534047465,0 ;
780;0;;AESCULUS_HIPPOCASTANUM;MARRONNIER_COMMUN;-1.67150006935847,48.1151384356163,0 ;
781;0;;CORNUS_MAS;CORNOUILLER_MALE;-1.67119913579713,48.1135840596878,0 ;
782;0;;QUERCUS_ROBUR;CHENE_PEDONCULE;-1.67079703304217,48.1132576361427,0 ;
783;0;;CORYLUS_AVELLANA;NOISETIER;-1.6705650461091,48.1133085986019,0 ;
786;0;;QUERCUS_CERRIS;CHENE_CHEVELU;-1.67094886890898,48.1124635588521,0 ;
787;0;;TAXUS_BACCATA;IF_COMMUN;-1.66995000574013,48.1131869750086,0 ;
788;0;;TAXUS_BACCATA;IF_COMMUN;-1.66996376797937,48.1131703491246,0 ;
789;0;;ABIES_CEPHALONICA;SAPIN_DE_GRECE;-1.67013659629905,48.1128690128563,0 ;
790;0;;ILEX_AQUIFOLIUM;HOUX;-1.66888786698073,48.1135791967435,0 ;
791;0;;SAMBUCUS_NIGRA;SUREAU_NOIR;-1.66832525469366,48.1137612481089,0 ;
792;0;;ACER_PSEUDOPLATANUS;ERABLE_SYCOMORE;-1.6689815521822,48.1138069023305,0 ;
793;0;;MAGNOLIA_X_SOULANGEANA;MAGNOLIA_DE_SOULANGE;-1.66925729215501,48.1133472928581,0 ;
794;0;;MAGNOLIA_STELLATA ?;MAGNOLIA_ETOILE;-1.66929074475338,48.1133313281304,0 ;
795;0;;MAGNOLIA_X_SOULANGEANA;MAGNOLIA_DE_SOULANGE;-1.66944971391539,48.1133285247508,0 ;
796;0;;SEQUOIADENDRON_GIGANTEUM;SEQUOIA_GEANT;-1.66971144190236,48.1133457705907,0 ;
253;0;;LIGUSTRUM_VULGARE;;-1.67094233612844,48.1127165138533,0 ;
289;56300;0587;TILIA_PLATYPHYLLOS;;-1.66758513917035,48.1147412249404,0 ;
295;659;0587;TILIA_PLATYPHYLLOS;;-1.67058837385951,48.1136792014944,0 ;
299;286;0587;;;-1.67087524873702,48.1144533549842,0 ;
300;358;0587;;;-1.66992213235274,48.1149922029501,0 ;
301;578;0587;;;-1.67081089878036,48.1142299194734,0 ;
302;503;0587;;;-1.66705589069447,48.1143291864152,0 ;
317;1021;0587;CERCIS_SILIQUATRUM;;-1.67064432821332,48.1122745937828,0 ;
320;298;0587;TILIA_PLATYPHYLLOS;;-1.67140914361265,48.1152435556118,0 ;
322;56299;0587;TILIA_PLATYPHYLLOS;;-1.66757818374898,48.1146940120427,0 ;
335;56294;0587;TILIA_PLATYPHYLLOS;;-1.66766825532146,48.1145701968318,0 ;
336;1020;0587;MALUS_FLORIBUNDA ?;;-1.67067979034124,48.1123076858926,0 ;
356;1199;0587;CRATAEGUS ??;;-1.67150925014376,48.1143498430895,0 ;
357;1062;0587;ROBINIA_PSEUDOACACIA ?;;-1.66942285243972,48.1127600331364,0 ;
368;297;0587;TILIA_PLATYPHYLLOS;;-1.67141639813133,48.1152999417681,0 ;
398;912;0587;;;-1.66860802807533,48.113679326627,0 ;
406;1061;0587;SOPHORA_JAPONICA ?;;-1.66944950134359,48.1127480480242,0 ;
712;1074;0587;??;;-1.66918231540092,48.1128464925325,0 ;
521;1019;0587;??;;-1.67072016930813,48.1123117981123,0 ;
525;445;0587;TILIA_PLATYPHYLLOS;;-1.66769246588245,48.1146833576116,0 ;
557;56303;0587;TILIA_PLATYPHYLLOS;;-1.66771984299792,48.1148981518286,0 ;
572;299;0587;TILIA_PLATYPHYLLOS;;-1.67140167911599,48.115195010981,0 ;
598;538;0587;??;;-1.66748031778817,48.1138728821994,0 ;
600;56298;0587;TILIA_PLATYPHYLLOS;;-1.66757546541552,48.1146459351367,0 ;
624;444;0587;TILIA_PLATYPHYLLOS;;-1.66769551824382,48.1146934274783,0 ;
632;56295;0587;TILIA_PLATYPHYLLOS;;-1.66757063430591,48.1145789323836,0 ;
645;0;;LIGUSTRUM_VULGARE;;-1.67044132429878,48.1130487087145,0 ;
646;0;;LIGUSTRUM_VULGARE;;-1.67064859413106,48.1130373684789,0 ;
658;0;;LIGUSTRUM_VULGARE ?;;-1.66817705285843,48.1137986687804,0 ;
662;0;;TILIA_PLATYPHYLLOS;;-1.66767624849993,48.1145792542792,0 ;
673;1046;0587;??;;-1.66960979170089,48.1124041209285,0 ;
691;642;0587;??;;-1.67010073951524,48.1137095489228,0 ;
697;56306;0587;TILIA_PLATYPHYLLOS;;-1.6676046836414,48.1149520552317,0 ;
740;56301;0587;TILIA_PLATYPHYLLOS;;-1.66759236177275,48.1147919393507,0 ;
742;959;0587;??;;-1.67071975300964,48.1130034812494,0 ;
748;1060;0587;OSTRYA_CARPINIFOLIA ?;;-1.66948062316181,48.1127488755712,0 ;
751;56297;0587;TILIA_PLATYPHYLLOS;;-1.66757595510579,48.1146364648717,0 ;
766;447;0587;TILIA_PLATYPHYLLOS;;-1.66768832013448,48.114630646791,0 ;
776;56309;0587;TILIA_PLATYPHYLLOS;;-1.66759676334435,48.1148585964075,0 ;
778;0;;??;;-1.67262573865368,48.1145119112328,0 ;
784;0;;LIGUSTRUM_VULGARE;;-1.6704306861049,48.1130155462531,0 ;
785;0;;LIGUSTRUM_VULGARE;;-1.67061342858571,48.1130344149743,0 ;
797;506;0587;;;-1.66698066104776,48.1143017719761,0 ;
798;512;0587;;;-1.66679003401795,48.1143445646503,0 ;
799;500;0587;;;-1.66711100733666,48.1143785354395,0 ;
800;294;0587;;;-1.67088017508767,48.1143009327626,0 ;
801;357;0587;;;-1.66991857618776,48.1148872503645,0 ;
802;509;0587;;;-1.66730112859331,48.114348545288,0 ;
803;505;0587;;;-1.66699791309727,48.1143058654506,0 ;
804;0;;FAGUS_SYLVATICA_'ATROPURPUREA';HETRE_'ATROPURPUREA';-1.66948248237667,48.1140998664026,0 ;
805;0;;MAGNOLIA_X_SOULANGEANA;MAGNOLIA_DE_SOULANGE;-1.66993021171022,48.1144556057884,0 ;
806;0;;JUNIPERUS_SABINA;GENEVRIER_SABINE;-1.66645975578429,48.1140677485441,0 ;
807;0;;BUXUS_BALEARICA;BUIS_DES_BALEARES;-1.66760253266381,48.1151022296149,0 ;
808;0;;CORNUS_FLORIDA;CORNOUILLER_A_FLEURS;-1.66784053632524,48.1147073453257,0 ;
809;0;;ILEX_AQUIFOLIUM;HOUX;-1.66732359820496,48.1147837909327,0 ;
810;0;;MALUS_FLORIBUNDA;POMMIER_A_FLEURS;-1.66728590169487,48.1148477162381,0 ;
811;1202;0587;ILEX_AQUIFOLIUM_'ALBOMARGINATA';HOUX_A_FEUILLES_PANACHEES;-1.66810673739307,48.1151656768403,0 ;
812;843;0587;BETULA_PENDULA;BOULEAU_BLANC_D_EUROPE;-1.67019443533555,48.1129820852314,0 ;
813;1159;0587;AESCULUS_HIPPOCASTANUM;MARRONNIER_COMMUN;-1.67174066367567,48.1139784781695,0 ;
814;942;0587;TAXUS_BACCATA;IF_COMMUN;-1.6698325479562,48.1126844508306,0 ;
815;828;0587;TRACHYCARPUS_FORTUNEI;PALMIER_DE_CHINE;-1.67027465419943,48.1133574120911,0 ;
996;586;0587;QUERCUS_CERRIS;CHENE_CHEVELU;-1.67091925629181,48.114252687903,0 ;
997;327;0587;QUERCUS_PALUSTRIS;CHENE_DES_MARAIS;-1.67053190410058,48.1147046769551,0 ;
998;363;0587;ILEX_AQUIFOLIUM_'ALBOMARGINATA';HOUX_A_FEUILLES_PANACHEES;-1.66985853019774,48.1151369050972,0 ;
999;904;0587;AESCULUS_HIPPOCASTANUM;MARRONNIER_COMMUN;-1.66882562020809,48.1133003107659,0 ;
1000;1124;0587;AESCULUS_HIPPOCASTANUM;MARRONNIER_COMMUN;-1.67330416839814,48.1140824976095,0 ;
1001;1145;0587;AESCULUS_HIPPOCASTANUM;MARRONNIER_COMMUN;-1.67248706094694,48.1139119081905,0 ;
1002;320;0587;QUERCUS_ROBUR;CHENE_PEDONCULE;-1.67069710181485,48.1143651734026,0 ;
1003;1200;0587;PRUNUS_CERASIFERA;CERISIER_A_FLEURS;-1.67153387480618,48.114320099472,0 ;
1004;269;0587;QUERCUS_ROBUR;CHENE_PEDONCULE;-1.67091432590376,48.1148268457787,0 ;
1005;893;0587;BETULA_PENDULA;BOULEAU_BLANC_D_EUROPE;-1.66902365094725,48.1133760205775,0 ;
1006;230;0587;AESCULUS_HIPPOCASTANUM;MARRONNIER_COMMUN;-1.67140815454711,48.1144241578621,0 ;
1007;485;0587;CEDRUS_LIBANII;CEDRE_DU_LIBAN;-1.66807882264662,48.114602996181,0 ;
1008;966;0587;PONCIRUS_TRIFOLIATA;CITRONNIER_EPINEUX;-1.67108419636145,48.1127927637503,0 ;
1009;380;0587;QUERCUS_PETRAEA;CHENE_SESSILE;-1.67054749813509,48.1152535531552,0 ;
1010;1126;0587;AESCULUS_HIPPOCASTANUM;MARRONNIER_COMMUN;-1.6733092367218,48.114018442641,0 ;
1011;817;0587;AESCULUS_HIPPOCASTANUM;MARRONNIER_COMMUN;-1.67069599719329,48.1131152200554,0 ;
1013;854;0587;SOPHORA_JAPONICA;SOPHORA_DU_JAPON;-1.66930583932486,48.1131231901577,0 ;
1014;918;0587;ILEX_AQUIFOLIUM;HOUX;-1.66836906978419,48.1137565471127,0 ;
1015;610;0587;QUERCUS_ROBUR;CHENE_PEDONCULE;-1.67117217630461,48.1138946091598,0 ;
1016;277;0587;QUERCUS_RUBRA;CHENE_ROUGE;-1.67086560278307,48.1146144011142,0 ;
1017;701;0587;PICEA_ABIES;EPICEA_COMMUN;-1.67025676891905,48.113253219856,0 ;
1018;195;0587;CRATAEGUS_LAEVIGATA;EPINE_BLANCHE;-1.67159582415363,48.1148754943542,0 ;
1019;521;0587;LIQUIDAMBAR_STYRACIFLUA;COPALME_D_AMERIQUE;-1.66799767249875,48.1142046506601,0 ;
1020;166;0587;AESCULUS_HIPPOCASTANUM;MARRONNIER_COMMUN;-1.67190457694165,48.1142867199724,0 ;
1021;541;0587;BETULA_PENDULA;BOULEAU_BLANC_D_EUROPE;-1.66618086604586,48.1143239424522,0 ;
1022;278;0587;QUERCUS_PALUSTRIS;CHENE_DES_MARAIS;-1.67094808191668,48.114592224749,0 ;
1023;221;0587;TILIA_X_EUCHLORA;TILLEUL_DE_CRIMEE;-1.67114754648621,48.1154384240879,0 ;
1024;919;0587;ILEX_AQUIFOLIUM;HOUX;-1.668345247223,48.1137491667904,0 ;
1025;874;0587;ACER_PSEUDOPLATANUS;ERABLE_SYCOMORE;-1.6689752440173,48.113775009267,0 ;
1026;176;0587;AESCULUS_HIPPOCASTANUM;MARRONNIER_COMMUN;-1.67226072349177,48.114381690717,0 ;
1027;1193;0587;AESCULUS_HIPPOCASTANUM;MARRONNIER_COMMUN;-1.6734221790801,48.1139493357292,0 ;
1028;407;0587;AESCULUS_HIPPOCASTANUM;MARRONNIER_COMMUN;-1.67145547800322,48.1147893535813,0 ;
1030;142;0587;AESCULUS_HIPPOCASTANUM;MARRONNIER_COMMUN;-1.67330231471662,48.1142715356191,0 ;
1031;816;0587;AESCULUS_HIPPOCASTANUM;MARRONNIER_COMMUN;-1.67055171152001,48.1131573353159,0 ;
1032;713;0587;PICEA_MARIANA ?;EPINETTE_NOIRE?;-1.66998195620207,48.1130732600631,0 ;
1033;809;0587;TILIA_PLATYPHYLLOS ?;TILLEUL_A_GRANDES_FEUILLES?;-1.67122384375726,48.1130709799252,0 ;
1034;1014;0587;JUGLANS_REGIA;NOYER_COMMUN;-1.67083848560229,48.1124053563307,0 ;
1035;670;0587;CHAMAECYPARIS_LAWSONIANA;CYPRES_DE_LAWSON;-1.6709147487653,48.1134117111422,0 ;
1036;288;0587;QUERCUS_PALUSTRIS;CHENE_DES_MARAIS;-1.67081678674744,48.1144025008515,0 ;
1037;1041;0587;MAGNOLIA_X_SOULANGEANA;MAGNOLIA_DE_SOULANGE;-1.66979927404421,48.1123835116328,0 ;
1038;365;0587;ILEX_AQUIFOLIUM;HOUX;-1.66978375606106,48.115141979923,0 ;
1039;366;0587;MAGNOLIA_GRANDIFLORA;MAGNOLIA_A_GRANDES_FLEURS;-1.66973922465902,48.1151380998955,0 ;
1040;1164;0587;AESCULUS_HIPPOCASTANUM;MARRONNIER_COMMUN;-1.67312505822335,48.1137788406937,0 ;
1041;778;0587;ACER_PSEUDOPLATANUS;ERABLE_SYCOMORE;-1.6708871833778,48.1132704835542,0 ;
1042;531;0587;AESCULUS_HIPPOCASTANUM;MARRONNIER_COMMUN;-1.66799620018332,48.113779094964,0 ;
1043;687;0587;TAXUS_BACCATA;IF_COMMUN;-1.67094102270034,48.1132183124027,0 ;
1044;1063;0587;PRUNUS ?;PRUNUS?;-1.66936756108017,48.1127702051396,0 ;
1045;527;0587;CEDRUS_ATLANTICA;CEDRE_DE_L_ATLAS;-1.66867153028617,48.1138529106899,0 ;
816;758;0587;CARPINUS_BETULUS;CHARME;-1.67103570107656,48.1135345307297,0 ;
817;1120;0587;AESCULUS_HIPPOCASTANUM;MARRONNIER_COMMUN;-1.67150946864513,48.1152438185942,0 ;
818;949;0587;CUNNINGHAMIA_LANCEOLATA;SAPIN_DE_CHINE;-1.66986829225753,48.1123876360317,0 ;
819;859;0587;QUERCUS_SUBER;CHENE_LIEGE;-1.66933352844559,48.1131389914336,0 ;
820;312;0587;QUERCUS_ROBUR;CHENE_PEDONCULE;-1.67078743283256,48.1147813915916,0 ;
821;272;0587;QUERCUS_CERRIS;CHENE_CHEVELU;-1.67088969902574,48.1147224336603,0 ;
822;914;0587;ACER_PSEUDOPLATANUS;ERABLE_SYCOMORE;-1.66855745763492,48.113726792733,0 ;
823;1172;0587;AESCULUS_HIPPOCASTANUM;MARRONNIER_COMMUN;-1.67256722031282,48.1138394261806,0 ;
824;807;0587;TILIA_PLATYPHYLLOS ?;TILLEUL_A_GRANDES_FEUILLES?;-1.67122918312137,48.1131692985831,0 ;
826;921;0587;ILEX_AQUIFOLIUM;HOUX;-1.66829695417847,48.1137311876925,0 ;
827;193;0587;CELTIS_AUSTRALIS;MICOCOULIER_DE_PROVENCE;-1.67187762848049,48.1144324221567,0 ;
829;1150;0587;AESCULUS_HIPPOCASTANUM;MARRONNIER_COMMUN;-1.6722093830951,48.113934129284,0 ;
830;1174;0587;AESCULUS_HIPPOCASTANUM;MARRONNIER_COMMUN;-1.67247359775944,48.1138520258798,0 ;
831;933;0587;TAXUS_BACCATA;IF_COMMUN;-1.66840643203222,48.113733392007,0 ;
832;906;0587;PRUNUS_LAUROCERASUS;LAURIER_CERISE;-1.66883295380268,48.1136032160212,0 ;
833;929;0587;TAXUS_BACCATA;IF_COMMUN;-1.66857149840631,48.1136939905797,0 ;
834;745;0587;TAXUS_BACCATA;IF_COMMUN;-1.67124450560599,48.1130721643526,0 ;
835;426;0587;PICEA_ORIENTALIS;SAPIN_DU_CAUCASE;-1.66704855660338,48.1144889827484,0 ;
836;1209;0587;MAGNOLIA_GRANDIFLORA;MAGNOLIA_A_GRANDES_FLEURS;-1.66838085221447,48.1151598271462,0 ;
837;878;0587;PSEUDOTSUGA_MENZIESII;SAPIN_DE_DOUGLAS;-1.66916095285499,48.1137789301545,0 ;
838;743;0587;TAXUS_BACCATA;IF_COMMUN;-1.67126041008678,48.1131820966041,0 ;
839;593;0587;TORREYA_GRANDIS;GRAND_TORREYA;-1.67001216505007,48.1141159428364,0 ;
840;1050;0587;CRATAEGUS_CRUSS_GALLI;EPINE_ERGOT_DE_COQ;-1.6695852690932,48.112502288943,0 ;
841;1042;0587;TILIA_X_EUCHLORA;TILLEUL_DE_CRIMEE;-1.66972898331094,48.1123573707992,0 ;
842;947;0587;CHAMAECYPARIS_LAWSONIANA;CYPRES_DE_LAWSON;-1.66961132044877,48.1124489077319,0 ;
843;205;0587;FRAXINUS_ANGUSTIFOLIA_'FLAME';FRENE_DU_MIDI;-1.6716117193938,48.1150435017758,0 ;
844;1155;0587;AESCULUS_HIPPOCASTANUM;MARRONNIER_COMMUN;-1.67192564584461,48.1139642054254,0 ;
845;353;0587;MAGNOLIA_X_SOULANGEANA;MAGNOLIA_DE_SOULANGE;-1.66989471071754,48.1144750635081,0 ;
846;826;0587;TRACHYCARPUS_FORTUNEI;PALMIER_DE_CHINE;-1.67028386315965,48.1133812272559,0 ;
847;428;0587;ABIES_ALBA;SAPIN_BLANC;-1.66701988024266,48.1145149917286,0 ;
848;891;0587;OSTRYA_CARPINIFOLIA;CHARME_HOUBLON;-1.66886349286784,48.1134092223054,0 ;
849;150;0587;AESCULUS_HIPPOCASTANUM;MARRONNIER_COMMUN;-1.67330406874581,48.1142097950426,0 ;
850;1095;0587;BETULA_PENDULA;BOULEAU_BLANC_D_EUROPE;-1.66955958032772,48.1129117567894,0 ;
851;519;0587;QUERCUS_ROBUR;CHENE_PEDONCULE;-1.66754003392248,48.1140374124134,0 ;
852;686;0587;TAXUS_BACCATA;IF_COMMUN;-1.67097548637289,48.113176528295,0 ;
853;801;0587;CARPINUS_BETULUS;CHARME;-1.67119006282429,48.1133052417862,0 ;
854;980;0587;PSEUDOTSUGA_MENZIESII;SAPIN_DE_DOUGLAS;-1.67122400221805,48.1128842367186,0 ;
855;360;0587;MAGNOLIA_GRANDIFLORA;MAGNOLIA_A_GRANDES_FLEURS;-1.66997597779728,48.1151342430002,0 ;
856;497;0587;DAVIDIA_INVOLUCRATA;ARBRES_AUX_MOUCHOIRS;-1.66611720541642,48.1145792999091,0 ;
857;514;0587;PINUS_PINASTER;PIN_MARITIME;-1.66677551319214,48.114388728633,0 ;
858;392;0587;CEDRUS_ATLANTICA_'GLAUCA';CEDRE_DE_L_ATLAS_'GLAUCA';-1.66975816365979,48.1153549829007,0 ;
859;484;0587;THUJA_PLICATA;THUYA_GEANT_DE_CALIFORNIE;-1.66821332998018,48.1145877789319,0 ;
860;1211;0587;ILEX_AQUIFOLIUM_'ALBOMARGINATA';HOUX_A_FEUILLES_PANACHEES;-1.66849820910464,48.1151559997581,0 ;
861;710;0587;CUPRESSUS ?;CYPRES?;-1.6700311664865,48.1130415063591,0 ;
862;431;0587;JUGLANS_REGIA;NOYER_COMMUN;-1.66693694105558,48.1145823804725,0 ;
863;502;0587;QUERCUS_SUBER;CHENE_LIEGE;-1.66708213943044,48.1143454873092,0 ;
864;147;0587;AESCULUS_HIPPOCASTANUM;MARRONNIER_COMMUN;-1.67341027834217,48.1142781543498,0 ;
865;688;0587;TAXUS_BACCATA;IF_COMMUN;-1.67092594199567,48.1132180176289,0 ;
867;1004;0587;CUNNINGHAMIA_LANCEOLATA;SAPIN_DE_CHINE;-1.67122877497981,48.1128039395371,0 ;
868;729;0587;CUPRESSUS_SEMPERVIRENS;CYPRES_DE_PROVENCE;-1.6712712458811,48.1135872557592,0 ;
869;885;0587;PICEA_ABIES;EPICEA_COMMUN;-1.66926457623226,48.1135947754967,0 ;
870;219;0587;TILIA_X_EUCHLORA;TILLEUL_DE_CRIMEE;-1.67100351747805,48.1154274995059,0 ;
871;676;0587;TAXUS_BACCATA;IF_COMMUN;-1.67087218568973,48.1134671879855,0 ;
872;284;0587;ZELKOVA_CARPINIFOLIA;ORME_DU_CAUCASE;-1.67091993338571,48.1144698351857,0 ;
873;888;0587;CUPRESSUS_SEMPERVIRENS;CYPRES_DE_PROVENCE;-1.67127209917268,48.1137113884772,0 ;
874;244;0587;QUERCUS_PALUSTRIS;CHENE_DES_MARAIS;-1.67135412430942,48.1147738196031,0 ;
875;194;0587;PRUNUS_LUSITANICA;LAURIER_DU_PORTUGAL;-1.67160517959751,48.1149594498817,0 ;
876;1027;0587;MAGNOLIA_DENUDATA;MAGNOLIA_DU_YULA;-1.67050713604008,48.1124609776863,0 ;
877;654;0587;SOPHORA_JAPONICA;SOPHORA_DU_JAPON;-1.67078363072375,48.1137713899292,0 ;
878;1053;0587;TAXUS_BACCATA;IF_COMMUN;-1.66962328804095,48.1125601452124,0 ;
879;839;0587;PRUNUS_LAUROCERASUS;LAURIER_CERISE;-1.67020319123912,48.113012309182,0 ;
880;517;0587;TAXUS_BACCATA;IF_COMMUN;-1.66747874696977,48.1141631255066,0 ;
881;683;0587;TAXUS_BACCATA;IF_COMMUN;-1.67103998509178,48.1132289770666,0 ;
882;224;0587;TILIA_X_EUCHLORA;TILLEUL_DE_CRIMEE;-1.67136181507866,48.1154553211017,0 ;
883;736;0587;TAXUS_BACCATA;IF_COMMUN;-1.67120133915609,48.1132820767452,0 ;
884;477;0587;KOELREUTERIA_PANICULATA;SAVONNIER;-1.66733004600679,48.1150128434413,0 ;
885;228;0587;AESCULUS_HIPPOCASTANUM;MARRONNIER_COMMUN;-1.67139785961435,48.1143260991079,0 ;
886;907;0587;PRUNUS_LAUROCERASUS;LAURIER_CERISE;-1.66882055702159,48.113613453603,0 ;
887;558;0587;QUERCUS_ROBUR;CHENE_PEDONCULE;-1.67119029513635,48.1141588803301,0 ;
888;915;0587;ACER_PSEUDOPLATANUS;ERABLE_SYCOMORE;-1.66845595880838,48.1137199052522,0 ;
889;375;0587;QUERCUS_FRAINETTO;CHENE_DE_HONGRIE;-1.6706007444232,48.115188257073,0 ;
890;256;0587;QUERCUS_ROBUR;CHENE_PEDONCULE;-1.67123776619009,48.1143319305642,0 ;
891;326;0587;QUERCUS_ROBUR;CHENE_PEDONCULE;-1.67055065987351,48.1147637244951,0 ;
892;242;0587;QUERCUS_PALUSTRIS;CHENE_DES_MARAIS;-1.67136073709741,48.1148094288442,0 ;
893;1189;0587;AESCULUS_HIPPOCASTANUM;MARRONNIER_COMMUN;-1.67341237678148,48.1141497826919,0 ;
894;599;0587;QUERCUS_ROBUR;CHENE_PEDONCULE;-1.67038178342557,48.1140401079159,0 ;
895;572;0587;QUERCUS_ROBUR;CHENE_PEDONCULE;-1.67089687860358,48.114048977604,0 ;
896;217;0587;TILIA_X_EUCHLORA;TILLEUL_DE_CRIMEE;-1.67098763322806,48.115353130736,0 ;
897;492;0587;CEDRUS_ATLANTICA_'GLAUCA';CEDRE_DE_L_ATLAS_'GLAUCA';-1.66823338452778,48.1144220550597,0 ;
898;372;0587;QUERCUS_FRAINETTO;CHENE_DE_HONGRIE;-1.67040809097828,48.1151903385393,0 ;
899;996;0587;AESCULUS_HIPPOCASTANUM;MARRONNIER_COMMUN;-1.6712512363967,48.1126046385336,0 ;
900;173;0587;AESCULUS_HIPPOCASTANUM;MARRONNIER_COMMUN;-1.67254283245921,48.1144137340111,0 ;
901;560;0587;QUERCUS_ROBUR;CHENE_PEDONCULE;-1.67118235771687,48.114125297334,0 ;
902;784;0587;PSEUDOTSUGA_MENZIESII;SAPIN_DE_DOUGLAS;-1.6710459433337,48.1132930596722,0 ;
903;873;0587;ACER_PSEUDOPLATANUS;ERABLE_SYCOMORE;-1.66893582305011,48.1137799573816,0 ;
904;391;0587;CEDRUS_ATLANTICA_'GLAUCA';CEDRE_DE_L_ATLAS_'GLAUCA';-1.66982251631488,48.1153578264092,0 ;
906;645;0587;SALIX_FRAGILIS;SAULE_CASSANT;-1.67012768886149,48.1135267520866,0 ;
907;207;0587;FRAXINUS_EXCELSIOR;FRENE_COMMUN;-1.67163012485144,48.1151915242135,0 ;
908;1157;0587;AESCULUS_HIPPOCASTANUM;MARRONNIER_COMMUN;-1.67183838980267,48.1139704294603,0 ;
909;740;0587;TAXUS_BACCATA;IF_COMMUN;-1.67121837369777,48.1132480010072,0 ;
910;604;0587;QUERCUS_ROBUR;CHENE_PEDONCULE;-1.67066932038209,48.1142370092573,0 ;
911;853;0587;ILEX_AQUIFOLIUM;HOUX;-1.66935671082396,48.1130991229959,0 ;
912;202;0587;CELTIS_AUSTRALIS;MICOCOULIER_DE_PROVENCE;-1.67158991092263,48.1144943875269,0 ;
913;887;0587;CEDRUS_ATLANTICA_'GLAUCA';CEDRE_DE_L_ATLAS_'GLAUCA';-1.66929028813482,48.1135069207078,0 ;
914;341;0587;BUXUS_SEMPERVIRENS;BUIS_COMMUN;-1.67030594549935,48.1146701706764,0 ;
915;693;0587;TAXUS_BACCATA;IF_COMMUN;-1.67092605451002,48.1133324515708,0 ;
916;651;0587;ABIES_CONCOLOR;SAPIN_DU_COLORADO;-1.67029020954219,48.1137893311937,0 ;
917;408;0587;AESCULUS_HIPPOCASTANUM;MARRONNIER_COMMUN;-1.67147469247771,48.1149409501447,0 ;
918;162;0587;AESCULUS_HIPPOCASTANUM;MARRONNIER_COMMUN;-1.67227293218552,48.1143231089661,0 ;
920;0;;MALUS_FLORIBUNDA;POMMIER_A_FLEURS;-1.6728237213437,48.1145357440319,0 ;
921;0;;CRATAEGUS_LAEVIGATA;EPINE_BLANCHE;-1.67244627775464,48.1144894997732,0 ;
922;0;;CELTIS_AUSTRALIS;MICOCOULIER_DE_PROVENCE;-1.67197149327602,48.114443586978,0 ;
923;0;;CELTIS_AUSTRALIS;MICOCOULIER_DE_PROVENCE;-1.67176596617415,48.1144200592576,0 ;
924;0;;POPULUS_X_CANESCENS_'MEGALEUCE';PEUPLIER_GRISARD;-1.66781767968362,48.1141316542853,0 ;
925;0;;LIQUIDAMBAR_STYRACIFLUA;COPALME_D_AMERIQUE;-1.66786047276334,48.1142697429229,0 ;
926;0;;CORNUS_MAS;CORNOUILLER_MALE;-1.67119159463073,48.1136441357787,0 ;
927;0;;TAXUS_BACCATA;IF_COMMUN;-1.6712036516287,48.1128188141051,0 ;
928;0;;ILEX_AQUIFOLIUM;HOUX;-1.67076211383869,48.1132145471556,0 ;
929;0;;ILEX_AQUIFOLIUM;HOUX;-1.67053322215219,48.1130639642467,0 ;
930;0;;CARPINUS_BETULUS;CHARME;-1.67066519013573,48.1130520314587,0 ;
931;0;;CERCIDIPHYLLUM_JAPONICUM;ARBRE_A_CARAMEL;-1.67100812863082,48.1127927145213,0 ;
932;0;;JUGLANS_REGIA;NOYER_COMMUN;-1.67042800979983,48.1124080334161,0 ;
933;0;;LAURUS_NOBILIS;LAURIER_SAUCE;-1.67020554185194,48.1131064862417,0 ;
934;0;;BETULA_PENDULA;BOULEAU_BLANC_D_EUROPE;-1.66995004012822,48.1131993894374,0 ;
935;0;;ILEX_AQUIFOLIUM;HOUX;-1.66930261213949,48.1129445105173,0 ;
936;0;;ILEX_AQUIFOLIUM;HOUX;-1.66935730167532,48.1129101557924,0 ;
937;0;;PICEA_SMITHIANA;EPICEA_PLEUREUR_DE_L_HIMALAYA;-1.67005098776504,48.1128629961522,0 ;
938;0;;TILIA_TOMENTOSA;TILLEUL_ARGENTE;-1.66918590556467,48.1133056428186,0 ;
939;0;;ACER_PALMATUM;ERABLE_JAPONAIS;-1.66960137739885,48.1127994604559,0 ;
940;0;;ACER_NEGUNDO;ERABLE_NEGUNDO;-1.66895621917898,48.1134909749139,0 ;
941;0;;CHAMAECYPARIS_NOOTKATENSIS;CYPRES_DE_NOOTKA;-1.67006180126342,48.113620623412,0 ;
942;0;;CORYLUS_AVELLANA_CONTORTA;NOISETIER_'CONTORTA';-1.67023559432678,48.1137092367762,0 ;
944;0;;PICEA_ORIENTALIS;SAPIN_DU_CAUCASE;-1.66982662465429,48.1137116897324,0 ;
945;0;;PICEA_ORIENTALIS;SAPIN_DU_CAUCASE;-1.66979381633741,48.1137850202003,0 ;
946;0;;FAGUS_SYLVATICA;HETRE;-1.66983135289596,48.1138889009759,0 ;
947;0;;FAGUS_SYLVATICA_'ATROPURPUREA';HETRE_'ATROPURPUREA';-1.6697606780155,48.1140286831059,0 ;
948;0;;FAGUS_SYLVATICA;HETRE;-1.66967000964515,48.114255841838,0 ;
949;0;;MAGNOLIA_X_SOULANGEANA;MAGNOLIA_DE_SOULANGE;-1.66991377741761,48.1144066117301,0 ;
950;0;;MAGNOLIA_X_SOULANGEANA;MAGNOLIA_DE_SOULANGE;-1.66989952194631,48.1144298300138,0 ;
952;0;;ERIOBOTRYA_JAPONICA;NEFLIER_DU_JAPON;-1.66651688017069,48.1149357879885,0 ;
953;0;;BUXUS_SEMPERVIRENS;BUIS_COMMUN;-1.66756832143717,48.1150977757655,0 ;
954;0;;CORNUS_FLORIDA;CORNOUILLER_A_FLEURS;-1.66794531415315,48.1147668740046,0 ;
955;0;;LAURUS_NOBILIS;LAURIER_SAUCE;-1.66733931642845,48.1148480612733,0 ;
956;0;;CORNUS_FLORIDA;CORNOUILLER_A_FLEURS;-1.66745803266565,48.1148557215072,0 ;
957;421;0587;LIRIODENDRON_TULIPIFERA;TULIPIER_DE_VIRGINIE;-1.66716180232826,48.1145689406885,0 ;
958;623;0587;CUPRESSUS_GLABRA;CYPRES_BLANC_DE_L_ARIZONA;-1.67004669713748,48.1138420401155,0 ;
959;946;0587;TSUGA_CANADENSIS;SAPIN_DU_CANADA;-1.67025604490378,48.1127900908183,0 ;
960;433;0587;GINKGO_BILOBA;ARBRE_AUX_QUARANTE_ECUS;-1.66683979927024,48.1145514823743,0 ;
961;977;0587;QUERCUS_PALUSTRIS;CHENE_DES_MARAIS;-1.66987926202007,48.1126517019547,0 ;
962;160;0587;AESCULUS_HIPPOCASTANUM;MARRONNIER_COMMUN;-1.67246397114332,48.1143422388676,0 ;
963;1038;0587;MALUS_FLORIBUNDA;POMMIER_A_FLEURS;-1.66992831522114,48.1124431190055,0 ;
964;300;0587;PLATANUS_ORIENTALIS;PLATANE_D_ORIENT;-1.67139338753482,48.1151355988124,0 ;
965;397;0587;QUERCUS_SUBER;CHENE_LIEGE;-1.6696033658973,48.11465185637,0 ;
966;881;0587;PICEA_ABIES;EPICEA_COMMUN;-1.66928929643741,48.1136739739583,0 ;
967;894;0587;BETULA_PAPYRIFERA ?;BOULEAU_A_PAPIER?;-1.66893529882053,48.113289271504,0 ;
968;835;0587;SOPHORA_JAPONICA;SOPHORA_DU_JAPON;-1.67025706118034,48.1131352607691,0 ;
969;151;0587;AESCULUS_HIPPOCASTANUM;MARRONNIER_COMMUN;-1.67330267679331,48.1141466586118,0 ;
970;1035;0587;FRAXINUS_EXCELSIOR;FRENE_COMMUN;-1.66986951484952,48.1125325548273,0 ;
971;347;0587;LAGERSTROEMIA_INDICA;LILAS_DES_INDES;-1.67012891448604,48.1144589587608,0 ;
972;1207;0587;MAGNOLIA_GRANDIFLORA;MAGNOLIA_A_GRANDES_FLEURS;-1.66830582140016,48.115159778947,0 ;
973;834;0587;ILEX_AQUIFOLIUM;HOUX;-1.6703196505465,48.1131538306793,0 ;
974;526;0587;QUERCUS_PALUSTRIS;CHENE_DES_MARAIS;-1.66791058511964,48.11412037878,0 ;
975;870;0587;TILIA_CORDATA;TILLEUL_A_PETITES_FEUILLES;-1.6691063589404,48.113476918476,0 ;
976;1081;0587;ALNUS_CORDATA;AULNE_DE_CORSE;-1.66919080872495,48.1131204562309,0 ;
977;800;0587;FAGUS_SYLVATICA;HETRE;-1.67116577759775,48.1133288514949,0 ;
978;178;0587;AESCULUS_HIPPOCASTANUM;MARRONNIER_COMMUN;-1.67206862696509,48.114359264981,0 ;
979;747;0587;ILEX_AQUIFOLIUM;HOUX;-1.67126392039419,48.1137522751691,0 ;
980;734;0587;CUPRESSUS_SEMPERVIRENS;CYPRES_DE_PROVENCE;-1.67121090830223,48.1133441456449,0 ;
981;385;0587;PLATANUS_X_ACERIFOLIA;PLATANE_A_FEUILLES_D_ERABLE;-1.67090608211331,48.1153116187713,0 ;
982;495;0587;MAGNOLIA_X_SOULANGEANA;MAGNOLIA_DE_SOULANGE;-1.66607879361847,48.1148183993305,0 ;
983;810;0587;AESCULUS_HIPPOCASTANUM;MARRONNIER_COMMUN;-1.67122362442697,48.1129622216222,0 ;
984;337;0587;QUERCUS_PALUSTRIS;CHENE_DES_MARAIS;-1.67043659921069,48.1145461365741,0 ;
985;532;0587;TAXUS_BACCATA;IF_COMMUN;-1.66804159910195,48.1138403005331,0 ;
986;697;0587;TAXUS_BACCATA;IF_COMMUN;-1.67040898097945,48.1133857760451,0 ;
987;406;0587;TILIA_X_EUCHLORA;TILLEUL_DE_CRIMEE;-1.67152649172011,48.1153913484412,0 ;
988;239;0587;QUERCUS_PALUSTRIS;CHENE_DES_MARAIS;-1.67137928360721,48.1149628492796,0 ;
989;850;0587;MAGNOLIA_GRANDIFLORA;MAGNOLIA_A_GRANDES_FLEURS;-1.67005920557389,48.1133248872499,0 ;
990;1171;0587;AESCULUS_HIPPOCASTANUM;MARRONNIER_COMMUN;-1.67265812140787,48.1138311251687,0 ;
991;757;0587;CATALPA_BIGNONIOIDES;CATALPA_COMMUN;-1.67093899989492,48.1136135567322,0 ;
992;435;0587;RHUS_VERNACIFLUA;VERNIS_DU_JAPON;-1.66659695253577,48.1145176354225,0 ;
993;1166;0587;AESCULUS_HIPPOCASTANUM;MARRONNIER_COMMUN;-1.67303060200195,48.1137880740955,0 ;
994;940;0587;TAXUS_BACCATA;IF_COMMUN;-1.669675574012,48.1127700369602,0 ;
1046;172;0587;AESCULUS_HIPPOCASTANUM;MARRONNIER_COMMUN;-1.67264286921831,48.1144243600519,0 ;
1047;180;0587;AESCULUS_HIPPOCASTANUM;MARRONNIER_COMMUN;-1.67189270824938,48.1143391677876,0 ;
1048;954;0587;TAXUS_BACCATA;IF_COMMUN;-1.67069541819281,48.1124528323956,0 ;
1049;1006;0587;ILEX_AQUIFOLIUM;HOUX;-1.67123881271863,48.1128650919367,0 ;
1050;711;0587;PINUS_PINEA;PIN_PARASOL;-1.67002329594739,48.1130246678608,0 ;
1051;716;0587;TAXUS_BACCATA;IF_COMMUN;-1.67005995536228,48.113131730731,0 ;
1052;939;0587;CHAMAECYPARIS_LAWSONIANA;CYPRES_DE_LAWSON;-1.66954973185536,48.1128954365084,0 ;
1053;554;0587;QUERCUS_ROBUR;CHENE_PEDONCULE;-1.67120278715711,48.1142381364275,0 ;
1054;1087;0587;PRUNUS_CERASIFERA_'NIGRA';CERISIER_A_FLEURS;-1.66920431784504,48.1130100593505,0 ;
1055;1056;0587;PRUNUS ?;PRUNUS?;-1.66967721338303,48.1125920670054,0 ;
1056;448;0587;CORNUS_FLORIDA;CORNOUILLER_A_FLEURS;-1.66788113797594,48.1147526364349,0 ;
1057;581;0587;QUERCUS_ROBUR;CHENE_PEDONCULE;-1.67082820686512,48.1141288463319,0 ;
1058;781;0587;AESCULUS_HIPPOCASTANUM;MARRONNIER_COMMUN;-1.6708937277138,48.1131728391505,0 ;
1059;613;0587;QUERCUS_ROBUR;CHENE_PEDONCULE;-1.6710132418004,48.1139032821068,0 ;
1061;189;0587;CRATAEGUS_LAEVIGATA;EPINE_BLANCHE;-1.67223144788615,48.1144738991385,0 ;
1062;838;0587;PRUNUS_LAUROCERASUS;LAURIER_CERISE;-1.67021710660848,48.1130220080781,0 ;
1063;1072;0587;LAURUS_NOBILIS;LAURIER_SAUCE;-1.66919258619166,48.1127818545351,0 ;
1064;451;0587;MALUS_FLORIBUNDA;POMMIER_A_FLEURS;-1.66774308652322,48.1145305462009,0 ;
1065;813;0587;CEDRUS_DEODARA;CEDRE_DE_L_HIMALAYA_;-1.67094978328309,48.1131179819814,0 ;
1066;945;0587;PSEUDOTSUGA_MENZIESII;SAPIN_DE_DOUGLAS;-1.67028047411238,48.1127101135912,0 ;
1067;402;0587;SEQUOIADENDRON_GIGANTEUM;SEQUOIA_GEANT;-1.66976304901983,48.1144234683126,0 ;
1068;1037;0587;FRAXINUS_EXCELSIOR;FRENE_COMMUN;-1.66980615544385,48.1125550677696,0 ;
1069;0;;OSTRYA_CARPINIFOLIA;CHARME_HOUBLON;-1.67125017722126,48.1145504493178,0 ;
1070;0;;QUERCUS_FRAINETTO;CHENE_DE_HONGRIE;-1.67101414237725,48.1149518503989,0 ;
1071;0;;PRUNUS_LUSITANICA;LAURIER_DU_PORTUGAL;-1.67155283879781,48.1145156567853,0 ;
1072;0;;ALNUS_GLUTINOSA;AULNE_GLUTINEUX;-1.66812949260032,48.114134210721,0 ;
1073;0;;CARPINUS_BETULUS_'FASTIGIATA';CHARME_FASTIGIE;-1.67124405794352,48.1137843671946,0 ;
1074;0;;ROBINIA_PSEUDOACACIA;ROBINIER_FAUX-ACACIA?;-1.67118187176464,48.1136711564576,0 ;
1076;0;;TAXUS_BACCATA;IF_COMMUN;-1.670705985538,48.1130569467639,0 ;
1077;0;;TAXUS_BACCATA;IF_COMMUN;-1.66994789562549,48.1131395906061,0 ;
1078;0;;TAXUS_BACCATA;IF_COMMUN;-1.66921966976877,48.1129077107629,0 ;
1079;0;;CEDRELLA ?;?;-1.66926458640264,48.1130183554615,0 ;
1080;0;;CUPRESSUS_CASHMERIANA;CYPRES_DU_CACHEMIRE;-1.66956813566476,48.1130586115048,0 ;
1081;0;;CUPRESSUS_MACROCARPA;CYPRES_DE_LAMBERT;-1.67038533970774,48.1136286624755,0 ;
1082;0;;ILEX_AQUIFOLIUM;HOUX;-1.67047852524482,48.1136701571801,0 ;
1083;0;;CORYLUS_AVELLANA;NOISETIER;-1.66814014096035,48.113788482252,0 ;
1084;0;;FAGUS_SYLVATICA;HETRE;-1.66912083469427,48.1138516390222,0 ;
1085;0;;ABIES_GRANDIS;SAPIN_DE_L_OREGON;-1.66915572742567,48.1136347795249,0 ;
1086;0;;MAGNOLIA_X_SOULANGEANA;MAGNOLIA_DE_SOULANGE;-1.66929229436176,48.1133604778358,0 ;
1087;0;;GLEDITSIA_TRIACANTHOS;FEVIER_D_AMERIQUE;-1.66944252806907,48.1144776010134,0 ;
1088;0;;CEDRUS_DEODARA;CEDRE_DE_L_HIMALAYA_;-1.66853180059329,48.1146453058486,0 ;
1089;0;;ACER_CAMPESTRE;ERABLE_CHAMPETRE;-1.66891916230591,48.1139489263084,0 ;
1090;0;;ABIES_NUMIDICA;SAPIN_D_ALGERIE;-1.66811714545179,48.1145825360466,0 ;
1092;0;;ACER_PALMATUM;ERABLE_JAPONAIS;-1.66717752906162,48.1140335049823,0 ;
1093;0;;CRATAEGUS ?;AUBEPINE?;-1.66754560125861,48.1150877437269,0 ;
1094;0;;FRAXINUS_ORNUS;FRENE_A_FLEURS;-1.66717730077536,48.1142599117223,0 ;
1095;0;;PYRUS_COMMUNIS;POIRIER_COMMUN;-1.66753464630713,48.1145076185221,0 ;
995;637;0587;??;;-1.67019013445206,48.1137252217979,0 ;
1012;1201;0587;??;;-1.67148696395487,48.114304415484,0 ;
1029;56307;0587;TILIA_PLATYPHYLLOS;;-1.66760356370068,48.1149143676225,0 ;
825;442;0587;TILIA_PLATYPHYLLOS;;-1.66770938689807,48.1147996481427,0 ;
828;446;0587;TILIA_PLATYPHYLLOS;;-1.66768928729679,48.1146415987447,0 ;
866;56302;0587;TILIA_PLATYPHYLLOS;;-1.66772008396438,48.114851864158,0 ;
905;443;0587;TILIA_PLATYPHYLLOS;;-1.66770162763599,48.1147348159792,0 ;
919;0;;?;;-1.67130033114242,48.1145468395202,0 ;
943;0;;LIGUSTRUM_VULGARE;;-1.6680788650619,48.1137982729937,0 ;
951;0;;TILIA_PLATYPHYLLOS;;-1.66760849194803,48.1150114296187,0 ;
1060;629;0587;??;;-1.67045733137677,48.1137398623874,0 ;
1075;0;;LIGUSTRUM_VULGARE;;-1.6705410217369,48.1130176379496,0 ;
1091;0;;TILIA_PLATYPHYLLOS;;-1.66761432017841,48.1150637747898,0 ;
1096;621;0587;;;-1.67065545559639,48.1138608552874,0 ;
1097;418;0587;;;-1.66700778239577,48.1146121950891,0 ;
1098;434;0587;;;-1.66670597125034,48.1144837507269,0 ;
1099;513;0587;;;-1.66675638501037,48.1143723648572,0 ;
