Ailante ;Ailanthus altissima ;Simaroubacées
Aliboufier ;Styrax officinalis ;Styracacées
Alisier blanc ;Sorbus aria ;Rosacées
Alisier de Fontainebleau ;Sorbus latifolia ;Rosacées
Alisier de Mougeot ;Sorbus mougeotii ;Rosacées
Alisier torminal ;Sorbus torminalis ;Rosacées
Anacardier ;Anacardium occidentale ;Anacardiacées
Araucaria ;Araucaria heterophylla ;Araucariacées
Araucaria du Chili ;Araucaria araucana ;Araucariacées
Arbre à soie ;Albizia julibrissin ;Fabacées
Arbre aux quarante écus ;Ginkgo biloba ;Ginkgoacées
Arbre de Judée ;Cercis siliquastrum ;Fabacées
Aubépine rose ;Crataegus Paul Scarlet ;Rosaceae
Aulne blanc ;Alnus incana ;Bétulacées
Aulne de Corse ;Alnus cordata ;Bétulacées
Aulne glutineux ;Alnus glutinosa ;Bétulacées
Baie rose de bourbon ;Schinus terebinthifolus ;Anacardiacées
Belombra ;Phytolacca dioica ;Phytolaccacées
Benjoin ;Terminalia bentzoe ;COMBRETACEAE
Bouleau pubescent ;Betula pubescens ;Bétulacées
Bouleau verruqueux ;Betula pendula ;Bétulacées
Caroubier ;Ceratonia siliqua ;Fabacées
Cercis ;Cercis;Fabacées
Crataegus;Crataegus;Rosacées
Ilex;Ilex;Aquifoliacées
ligustrum;ligustrum;Oleaceae
prunus;prunus;Rosacées
tilia;tilia;Tiliaceae
Catalpa ;Catalpa bignonioïdes walter ;Bignoniacée
Cèdre de Chypre ;Cedrus hevifolia ;PINACEES
Cèdre de l'Atlas ;Cedrus atlantica ;Pinacées
Cerisier à grappes ;Prunus padus ;Rosacées
Cerisier tardif ;Prunus serotina ;Rosacées
Charme ;Carpinus betulus ;Corylacées
Châtaignier ;Castanea sativa ;Fagacées
Chêne faux-liège ;Quercus crenata ;Fagaceae
Chêne kermès ;Quercus coccifera ;Fagacées
Chêne liège ;Quercus suber ;Fagacées
Chêne pédonculé ;Quercus robur ;Fagacées
Chêne pubescent ;Quercus pubescens ;Fagacées
Chêne rouge ;Quercus rubra ;Fagacées
Chêne sessile ;Quercus petraea ;Fagacées
Chêne tauzin ;Quercus pyrenaica ;Fagacées
Chêne vert ;Quercus ilex ;Fagacées
Citronnier ;Citrus limon ;Rutacées
Citronnier épineux ;Poncirus trifoliata ;Rutacées
Copalme d Amérique ;Liquidambar styracyflua ;Hamamelidacées
Cormier ;Sorbus domestica ;Rosacées
Cotinus ;Cotinus coggygria ;Anacardiacées
Cyprès bleu ;Chamaecyparis ;Cupressacées
Cyprès chauve ;Taxodium distichum ;Taxodiacées
Cyprès de l'Arizona ;Cupressus arizonica ;Cupressacées
Cyprès de Lambert ;Cupressus macrocarpa ;Cupressacées
Cyprès de Lawson ;Chamaecyparis lawsoniana ;Cupressacées
Cyprès méditerranéen ;Cupressus sempervirens ;Cupressacées
Douglas ;Pseudotsuga menziesii ;Pinacées
Epicéa commun ;Picea abies ;Pinacées
Epicéa de Sitka ;Picea sitchensis ;Pinacées
Erable à feuilles d'obier ;Acer Opalus ;Acéracées
Erable champêtre ;Acer campestre ;Acéracées
Erable de Montpellier ;Acer monspessulanum ;Acéracées
Erable du Japon ;Acer palmatum ;Acéracées
Erable negundo ;Acer negundo ;Acéracées
Erable plane ;Acer platanoides ;Acéracées
Erable sycomore ;Acer pseudoplatanus ;Acéracées
Eucalyptus ;Eucalyptus gunni ;MYRTACEES
Faux cyprès de Nootka ;Chamaecyparis nootkatensis ;Cupressacées
Feijoa ;Feijoa sellowiana ;Myrtacées
Févier d'Amérique ;Gleditsia triacanthos ;Fabacées
Figuier ;Ficus carica ;Moracées
Filao ;Casuarina ;Casuarinacées
Flamboyant ;Delonix regia ;Caesalpiniaceae
Frêne à fleurs ;Fraxinus ornus ;Oléacées
Frêne commun ;Fraxinus excelsior ;Oléacées
Frêne oxyphylle ;Fraxinus angustifolia ;Oléacées
Gommier, Omina (Drehu) ;Cordia Dichotoma ;Boraginacées
Hêtre ;Fagus sylvatica ;Fagacées
If commun ;Taxus baccata ;Taxacées
Jaquier ;Artocarpus heterophyllus ;Moracées
Kiwi ;Actinidia ;Actinidiacées
L'Arbre des pagodes ;Styphnolobium japonicum ou Sophors japonica ;Fabacées
Laurier cerise ;Prunus laurocerasus ;Rosaceae
Libocèdre ;Heyderia decurrens ;Cupressacées
Lilas de Perse ;Melia azedarach ;Meliacées
Lilas des indes ;Lagerstroemia ;Des Lythraceae
Magnolia d'été ;Magnolia grandiflora ;Magnoliacées
Marronier rouge ;Aesculus X carnea ;HIPPOCASTANACEES
Marronnier d'Inde ;Aesculus hippocastanum ;Hippocastanacées
Mélèze d'Europe ;Larix decidua ;Pinacées
Mélèze du Japon ;Larix kaempferi ;Pinacées
Merisier ;Prunus avium ;Rosacées
Micocoulier ;Celtis australis ;Cannabacées
Murier blanc ;Morus alba ;Moracées
Murier noir ;Morus nigra ;Moracées
Mûrier platane ;Morus kagayamae ;Moracées
Noyer commun ;Juglans regia ;Juglandacées
Noyer noir ;Juglans nigra ;Juglandacées
Olivier ;Olea europaea ;Oléacées
Oranger ;Citrus sinensis ;Rutacées
Orme champêtre ;Ulmus minor ;Ulmacées
Orme de montagne ;Ulmus glabra ;Ulmacées
Orme lisse ;Ulmus laevis ;Ulmacées
Ostrya ;Ostrya carpinifolia ;Betulacées
Paulownia impérial ;Paulownia tomentosa ;SCROFULARIACEES
Pêcher ;Prunus persica ;Rosacées
Petit Tamarin des Hauts ;Sophora denudata ;Fabaceae
Peuplier blanc ;Populus alba ;Salicacées
Peuplier noir ;Populus nigra ;Salicacées
Pied d'éléphant ;Beaucarnea recurvata ;Agavacées
Pin à cinq aiguilles ;Pinus pentaphylla ;Pinacee
Pin à crochets ;Pinus uncinata ;Pinacées
Pin cembro ;Pinus cembra ;Pinacées
Pin d'alep ;Pinus halepensis ;Pinacées
Pin de Monterey ;Pinus radiata ;Pinacées
Pin de Murray ;Pinus contorta ;Pinacées
Pin de Salzmann ;Pinus nigra salzmanni ;Pinacées
Pin de Wollemi ;Wollemia nobilis ;Araucariacées
Pin laricio de Calabre ;Pinus nigra laricio calabrica ;Pinacées
Pin laricio de Corse ;Pinus nigra laricio corsicana ;Pinacées
Pin maritime ;Pinus pinaster ;Pinacées
Pin mugo ;Pinus mugo ;Pinacées
Pin noir d'Autriche ;Pinus nigra nigra ;Pinacées
Pin pinier ;Pinus pinea ;Pinacées
Pin sylvestre ;Pinus sylvestris ;Pinacées
Pin Weymouth ;Pinus strobus ;Pinacées
Platane ;Platanus hybrida ;Platanacées
Poirier commun ;Pyrus pyraster ;Rosacées
Pomme rose ;Syzygium jambos ;Myrtacées
Pommier sauvage ;Malus sylvestris ;Rosacées
Pourpier en arbre ;Portulacaria Afra ;Portulacacées
Robinier faux acacia ;Robinia pseudacacia ;Fabacées
Sapin de Nordmann ;Abies nordmanniana ;Pinacées
Sapin des quatre couleurs ;Cryptomeria japonica ;taxodiacees
Sapin pectiné ;Abies alba ;Pinacées
Saule blanc ;Salix alba ;Salicacées
Saule cassant ;Salix fragilis ;Salicacées
Saule des vanniers ;Salix viminalis ;Salicacées
Saule marsault ;Salix caprea ;Salicacées
Saule pleureur ;Salix babylonica ;Salicacées
Savonnier ;Koelreuteria paniculata ;Sapindacees
Sequoia géant ;Sequoiadendron giganteum ;Cupressacées
Sequoia toujours vert ;Sequoia sempervirens ;Taxodiacées
Sorbier des oiseleurs ;Sorbus aucuparia ;Rosacées
Tamarin des Hauts ;Acacia heterophylla ;Mimosaceae
Tamaris d'été ;Tamarix ramosissima ;Tamaricacées
Thuya d'Occident ;Thuja occidentalis ;Cupressacées
Thuya d'Orient ;Thuja orientalis ;Cupressacées
Thuya géant ;Thuja plicata ;Cupressacées
Tilleul à grandes feuilles ;Tilia platyphyllos ;Tiliacées
Tilleul à petites feuilles ;Tilia cordata ;Tiliacées
Tremble ;Populus tremula ;Salicacées
Tsuga hétérophylle ;Tsuga heterophylla ;Pinacées
Tulipier de Virginie ;Liriodendron tulipifera ;Magnoliacées
Vitex ;Vitex stahelii ;Verbenacées 
