<?xml version="1.0" encoding="UTF-8"?>
<kml xmlns="http://earth.google.com/kml/2.2">
<Document>
  <name>thabor</name>
  <description><![CDATA[]]></description>
  <Style id="style26">
    <LineStyle>
      <color>40000000</color>
      <width>3</width>
    </LineStyle>
    <PolyStyle>
      <color>0DFF0000</color>
      <fill>1</fill>
      <outline>1</outline>
    </PolyStyle>
  </Style>
  <Style id="style16">
    <LineStyle>
      <color>40000000</color>
      <width>3</width>
    </LineStyle>
    <PolyStyle>
      <color>14FFFF66</color>
      <fill>1</fill>
      <outline>1</outline>
    </PolyStyle>
  </Style>
  <Style id="style40">
    <LineStyle>
      <color>40000000</color>
      <width>3</width>
    </LineStyle>
    <PolyStyle>
      <color>0D0099FF</color>
      <fill>1</fill>
      <outline>1</outline>
    </PolyStyle>
  </Style>
  <Style id="style42">
    <LineStyle>
      <color>73FF0000</color>
      <width>5</width>
    </LineStyle>
  </Style>
  <Style id="style37">
    <LineStyle>
      <color>73FF0000</color>
      <width>5</width>
    </LineStyle>
  </Style>
  <Style id="style25">
    <LineStyle>
      <color>73FF0000</color>
      <width>5</width>
    </LineStyle>
  </Style>
  <Style id="style44">
    <LineStyle>
      <color>73FF0000</color>
      <width>5</width>
    </LineStyle>
  </Style>
  <Style id="style32">
    <LineStyle>
      <color>73FF0000</color>
      <width>5</width>
    </LineStyle>
  </Style>
  <Style id="style20">
    <LineStyle>
      <color>73FF0000</color>
      <width>5</width>
    </LineStyle>
  </Style>
  <Style id="style8">
    <LineStyle>
      <color>73FF0000</color>
      <width>5</width>
    </LineStyle>
  </Style>
  <Style id="style22">
    <LineStyle>
      <color>73FF0000</color>
      <width>5</width>
    </LineStyle>
  </Style>
  <Style id="style3">
    <LineStyle>
      <color>73FF0000</color>
      <width>5</width>
    </LineStyle>
  </Style>
  <Style id="style24">
    <LineStyle>
      <color>73FF0000</color>
      <width>5</width>
    </LineStyle>
  </Style>
  <Style id="style10">
    <LineStyle>
      <color>73FF0000</color>
      <width>5</width>
    </LineStyle>
  </Style>
  <Style id="style30">
    <LineStyle>
      <color>73FF0000</color>
      <width>5</width>
    </LineStyle>
  </Style>
  <Style id="style36">
    <LineStyle>
      <color>73FF0000</color>
      <width>5</width>
    </LineStyle>
  </Style>
  <Style id="style11">
    <LineStyle>
      <color>73FF0000</color>
      <width>5</width>
    </LineStyle>
  </Style>
  <Style id="style19">
    <LineStyle>
      <color>73FF0000</color>
      <width>5</width>
    </LineStyle>
  </Style>
  <Style id="style34">
    <LineStyle>
      <color>73FF0000</color>
      <width>5</width>
    </LineStyle>
  </Style>
  <Style id="style23">
    <LineStyle>
      <color>73FF0000</color>
      <width>5</width>
    </LineStyle>
  </Style>
  <Style id="style6">
    <LineStyle>
      <color>73FF0000</color>
      <width>5</width>
    </LineStyle>
  </Style>
  <Style id="style18">
    <LineStyle>
      <color>73FF0000</color>
      <width>5</width>
    </LineStyle>
  </Style>
  <Style id="style38">
    <LineStyle>
      <color>73FF0000</color>
      <width>5</width>
    </LineStyle>
  </Style>
  <Style id="style9">
    <LineStyle>
      <color>73FF0000</color>
      <width>5</width>
    </LineStyle>
  </Style>
  <Style id="style13">
    <LineStyle>
      <color>73FF0000</color>
      <width>5</width>
    </LineStyle>
  </Style>
  <Style id="style17">
    <LineStyle>
      <color>73FF0000</color>
      <width>5</width>
    </LineStyle>
  </Style>
  <Style id="style28">
    <LineStyle>
      <color>73FF0000</color>
      <width>5</width>
    </LineStyle>
  </Style>
  <Style id="style15">
    <LineStyle>
      <color>40000000</color>
      <width>3</width>
    </LineStyle>
    <PolyStyle>
      <color>73FF0000</color>
      <fill>1</fill>
      <outline>1</outline>
    </PolyStyle>
  </Style>
  <Style id="style1">
    <LineStyle>
      <color>40000000</color>
      <width>3</width>
    </LineStyle>
    <PolyStyle>
      <color>73FF0000</color>
      <fill>1</fill>
      <outline>1</outline>
    </PolyStyle>
  </Style>
  <Style id="style45">
    <LineStyle>
      <color>40000000</color>
      <width>3</width>
    </LineStyle>
    <PolyStyle>
      <color>73FF0000</color>
      <fill>1</fill>
      <outline>1</outline>
    </PolyStyle>
  </Style>
  <Style id="style43">
    <LineStyle>
      <color>40000000</color>
      <width>3</width>
    </LineStyle>
    <PolyStyle>
      <color>73FF0000</color>
      <fill>1</fill>
      <outline>1</outline>
    </PolyStyle>
  </Style>
  <Style id="style12">
    <LineStyle>
      <color>40000000</color>
      <width>3</width>
    </LineStyle>
    <PolyStyle>
      <color>73FF0000</color>
      <fill>1</fill>
      <outline>1</outline>
    </PolyStyle>
  </Style>
  <Style id="style5">
    <LineStyle>
      <color>73FF0000</color>
      <width>5</width>
    </LineStyle>
  </Style>
  <Style id="style2">
    <LineStyle>
      <color>73FF0000</color>
      <width>5</width>
    </LineStyle>
  </Style>
  <Style id="style31">
    <LineStyle>
      <color>73FF0000</color>
      <width>5</width>
    </LineStyle>
  </Style>
  <Style id="style7">
    <LineStyle>
      <color>40000000</color>
      <width>3</width>
    </LineStyle>
    <PolyStyle>
      <color>73FF0000</color>
      <fill>1</fill>
      <outline>1</outline>
    </PolyStyle>
  </Style>
  <Style id="style41">
    <LineStyle>
      <color>73FF0000</color>
      <width>5</width>
    </LineStyle>
  </Style>
  <Style id="style29">
    <LineStyle>
      <color>40000000</color>
      <width>3</width>
    </LineStyle>
    <PolyStyle>
      <color>73FF0000</color>
      <fill>1</fill>
      <outline>1</outline>
    </PolyStyle>
  </Style>
  <Style id="style21">
    <LineStyle>
      <color>73FF0000</color>
      <width>5</width>
    </LineStyle>
  </Style>
  <Style id="style33">
    <LineStyle>
      <color>73FF0000</color>
      <width>5</width>
    </LineStyle>
  </Style>
  <Style id="style4">
    <LineStyle>
      <color>73FF0000</color>
      <width>5</width>
    </LineStyle>
  </Style>
  <Style id="style35">
    <LineStyle>
      <color>73FF0000</color>
      <width>5</width>
    </LineStyle>
  </Style>
  <Style id="style39">
    <LineStyle>
      <color>73FF0000</color>
      <width>5</width>
    </LineStyle>
  </Style>
  <Style id="style14">
    <LineStyle>
      <color>73FF0000</color>
      <width>5</width>
    </LineStyle>
  </Style>
  <Style id="style27">
    <LineStyle>
      <color>73FF0000</color>
      <width>5</width>
    </LineStyle>
  </Style>
  <Placemark>
    <name>secteur_ouest</name>
    <description><![CDATA[]]></description>
    <styleUrl>#style26</styleUrl>
    <Polygon>
      <outerBoundaryIs>
        <LinearRing>
          <tessellate>1</tessellate>
          <coordinates>
            -1.673737,48.114635,0.000000
            -1.673131,48.114571,0.000000
            -1.673152,48.114487,0.000000
            -1.673034,48.114468,0.000000
            -1.672991,48.114567,0.000000
            -1.671747,48.114380,0.000000
            -1.671655,48.114326,0.000000
            -1.671360,48.113838,0.000000
            -1.673506,48.113625,0.000000
            -1.673495,48.114307,0.000000
            -1.673844,48.114349,0.000000
            -1.673737,48.114635,0.000000
          </coordinates>
        </LinearRing>
      </outerBoundaryIs>
    </Polygon>
  </Placemark>
  <Placemark>
    <name>secteur_sud</name>
    <description><![CDATA[]]></description>
    <styleUrl>#style16</styleUrl>
    <Polygon>
      <outerBoundaryIs>
        <LinearRing>
          <tessellate>1</tessellate>
          <coordinates>
            -1.671370,48.113869,0.000000
            -1.668500,48.113781,0.000000
            -1.668999,48.112766,0.000000
            -1.669310,48.112320,0.000000
            -1.670990,48.112171,0.000000
            -1.671380,48.112179,0.000000
            -1.671370,48.113869,0.000000
          </coordinates>
        </LinearRing>
      </outerBoundaryIs>
    </Polygon>
  </Placemark>
  <Placemark>
    <name>secteur_est</name>
    <description><![CDATA[]]></description>
    <styleUrl>#style40</styleUrl>
    <Polygon>
      <outerBoundaryIs>
        <LinearRing>
          <tessellate>1</tessellate>
          <coordinates>
            -1.668550,48.115334,0.000000
            -1.665890,48.115074,0.000000
            -1.666051,48.113777,0.000000
            -1.668400,48.113728,0.000000
            -1.668518,48.113785,0.000000
            -1.668550,48.115334,0.000000
          </coordinates>
        </LinearRing>
      </outerBoundaryIs>
    </Polygon>
  </Placemark>
  <Placemark>
    <name>1</name>
    <description><![CDATA[]]></description>
    <styleUrl>#style42</styleUrl>
    <LineString>
      <tessellate>1</tessellate>
      <coordinates>
        -1.673846,48.114510,0.000000
        -1.672548,48.114380,0.000000
      </coordinates>
    </LineString>
  </Placemark>
  <Placemark>
    <name>2</name>
    <description><![CDATA[]]></description>
    <styleUrl>#style37</styleUrl>
    <LineString>
      <tessellate>1</tessellate>
      <coordinates>
        -1.673356,48.114456,0.000000
        -1.673388,48.113861,0.000000
        -1.673350,48.113796,0.000000
        -1.673246,48.113773,0.000000
        -1.671684,48.113949,0.000000
      </coordinates>
    </LineString>
  </Placemark>
  <Placemark>
    <name>3</name>
    <description><![CDATA[]]></description>
    <styleUrl>#style25</styleUrl>
    <LineString>
      <tessellate>1</tessellate>
      <coordinates>
        -1.672387,48.115002,0.000000
        -1.672551,48.114384,0.000000
      </coordinates>
    </LineString>
  </Placemark>
  <Placemark>
    <name>4</name>
    <description><![CDATA[]]></description>
    <styleUrl>#style44</styleUrl>
    <LineString>
      <tessellate>1</tessellate>
      <coordinates>
        -1.671655,48.114346,0.000000
        -1.672540,48.114445,0.000000
      </coordinates>
    </LineString>
  </Placemark>
  <Placemark>
    <name>5</name>
    <description><![CDATA[]]></description>
    <styleUrl>#style32</styleUrl>
    <LineString>
      <tessellate>1</tessellate>
      <coordinates>
        -1.671658,48.114349,0.000000
        -1.671682,48.113949,0.000000
      </coordinates>
    </LineString>
  </Placemark>
  <Placemark>
    <name>6</name>
    <description><![CDATA[]]></description>
    <styleUrl>#style20</styleUrl>
    <LineString>
      <tessellate>1</tessellate>
      <coordinates>
        -1.671676,48.113953,0.000000
        -1.671355,48.113888,0.000000
        -1.671097,48.113705,0.000000
        -1.670883,48.113605,0.000000
        -1.670346,48.113422,0.000000
        -1.670038,48.113331,0.000000
        -1.669826,48.113277,0.000000
      </coordinates>
    </LineString>
  </Placemark>
  <Placemark>
    <name>7</name>
    <description><![CDATA[]]></description>
    <styleUrl>#style8</styleUrl>
    <LineString>
      <tessellate>1</tessellate>
      <coordinates>
        -1.671092,48.113701,0.000000
        -1.671189,48.113510,0.000000
        -1.671028,48.113323,0.000000
        -1.671038,48.113110,0.000000
      </coordinates>
    </LineString>
  </Placemark>
  <Placemark>
    <name>8</name>
    <description><![CDATA[]]></description>
    <styleUrl>#style22</styleUrl>
    <LineString>
      <tessellate>1</tessellate>
      <coordinates>
        -1.671022,48.113125,0.000000
        -1.670513,48.113113,0.000000
        -1.670346,48.113018,0.000000
        -1.670261,48.112850,0.000000
      </coordinates>
    </LineString>
  </Placemark>
  <Placemark>
    <name>9</name>
    <description><![CDATA[]]></description>
    <styleUrl>#style3</styleUrl>
    <LineString>
      <tessellate>1</tessellate>
      <coordinates>
        -1.671017,48.113125,0.000000
        -1.671092,48.113064,0.000000
        -1.671159,48.112938,0.000000
        -1.671148,48.112831,0.000000
        -1.671186,48.112728,0.000000
        -1.671159,48.112629,0.000000
        -1.671065,48.112595,0.000000
      </coordinates>
    </LineString>
  </Placemark>
  <Placemark>
    <name>10</name>
    <description><![CDATA[]]></description>
    <styleUrl>#style24</styleUrl>
    <LineString>
      <tessellate>1</tessellate>
      <coordinates>
        -1.671076,48.112595,0.000000
        -1.671132,48.112190,0.000000
      </coordinates>
    </LineString>
  </Placemark>
  <Placemark>
    <name>11</name>
    <description><![CDATA[]]></description>
    <styleUrl>#style10</styleUrl>
    <LineString>
      <tessellate>1</tessellate>
      <coordinates>
        -1.671068,48.112591,0.000000
        -1.671030,48.112572,0.000000
        -1.670716,48.112541,0.000000
      </coordinates>
    </LineString>
  </Placemark>
  <Placemark>
    <name>12</name>
    <description><![CDATA[]]></description>
    <styleUrl>#style30</styleUrl>
    <LineString>
      <tessellate>1</tessellate>
      <coordinates>
        -1.670719,48.112541,0.000000
        -1.670260,48.112850,0.000000
      </coordinates>
    </LineString>
  </Placemark>
  <Placemark>
    <name>13</name>
    <description><![CDATA[]]></description>
    <styleUrl>#style36</styleUrl>
    <LineString>
      <tessellate>1</tessellate>
      <coordinates>
        -1.670711,48.112541,0.000000
        -1.670400,48.112507,0.000000
        -1.670113,48.112507,0.000000
        -1.669906,48.112556,0.000000
        -1.669788,48.112614,0.000000
        -1.669689,48.112690,0.000000
      </coordinates>
    </LineString>
  </Placemark>
  <Placemark>
    <name>14</name>
    <description><![CDATA[]]></description>
    <styleUrl>#style11</styleUrl>
    <LineString>
      <tessellate>1</tessellate>
      <coordinates>
        -1.669686,48.112690,0.000000
        -1.669909,48.112705,0.000000
        -1.670038,48.112717,0.000000
        -1.670123,48.112755,0.000000
        -1.670263,48.112854,0.000000
      </coordinates>
    </LineString>
  </Placemark>
  <Placemark>
    <name>Line 15</name>
    <description><![CDATA[]]></description>
    <styleUrl>#style19</styleUrl>
    <LineString>
      <tessellate>1</tessellate>
      <coordinates>
        -1.670260,48.112858,0.000000
        -1.669890,48.113052,0.000000
        -1.669794,48.113247,0.000000
        -1.669973,48.113525,0.000000
        -1.670003,48.113621,0.000000
        -1.669971,48.113892,0.000000
        -1.669544,48.114006,0.000000
        -1.669265,48.114071,0.000000
        -1.669048,48.114086,0.000000
        -1.668739,48.114079,0.000000
        -1.668570,48.114086,0.000000
        -1.668334,48.114132,0.000000
        -1.668120,48.114189,0.000000
        -1.667951,48.114262,0.000000
        -1.667742,48.114338,0.000000
        -1.667637,48.114441,0.000000
        -1.667482,48.114410,0.000000
        -1.667434,48.114300,0.000000
        -1.667396,48.114197,0.000000
        -1.667434,48.114037,0.000000
        -1.667541,48.113903,0.000000
        -1.667798,48.113876,0.000000
        -1.667804,48.113968,0.000000
        -1.667729,48.113995,0.000000
        -1.667622,48.114021,0.000000
        -1.667576,48.114086,0.000000
        -1.667543,48.114159,0.000000
        -1.667568,48.114231,0.000000
        -1.667610,48.114258,0.000000
        -1.667692,48.114273,0.000000
        -1.667837,48.114212,0.000000
        -1.667886,48.114151,0.000000
        -1.667991,48.114052,0.000000
        -1.667991,48.114002,0.000000
        -1.667896,48.113983,0.000000
        -1.667872,48.114014,0.000000
        -1.667811,48.113972,0.000000
        -1.667814,48.113876,0.000000
        -1.668023,48.113865,0.000000
        -1.668193,48.113857,0.000000
        -1.668376,48.113846,0.000000
        -1.668580,48.113792,0.000000
        -1.668728,48.113762,0.000000
        -1.668840,48.113697,0.000000
        -1.668915,48.113590,0.000000
        -1.669024,48.113464,0.000000
        -1.669158,48.113354,0.000000
        -1.669324,48.113270,0.000000
        -1.669494,48.113232,0.000000
        -1.669623,48.113235,0.000000
        -1.669819,48.113270,0.000000
        -1.669817,48.113270,0.000000
      </coordinates>
    </LineString>
  </Placemark>
  <Placemark>
    <name>Line 16</name>
    <description><![CDATA[]]></description>
    <styleUrl>#style34</styleUrl>
    <LineString>
      <tessellate>1</tessellate>
      <coordinates>
        -1.671190,48.113781,0.000000
        -1.670800,48.113789,0.000000
        -1.669959,48.113892,0.000000
        -1.669920,48.114319,0.000000
        -1.670150,48.114510,0.000000
        -1.670213,48.114780,0.000000
        -1.669550,48.114769,0.000000
        -1.669920,48.114319,0.000000
      </coordinates>
    </LineString>
  </Placemark>
  <Placemark>
    <name>Line 18</name>
    <description><![CDATA[]]></description>
    <styleUrl>#style23</styleUrl>
    <LineString>
      <tessellate>1</tessellate>
      <coordinates>
        -1.670754,48.115063,0.000000
        -1.671237,48.115074,0.000000
        -1.671580,48.114998,0.000000
        -1.671473,48.114876,0.000000
        -1.671430,48.114639,0.000000
        -1.671403,48.114468,0.000000
        -1.671366,48.114300,0.000000
        -1.671339,48.114063,0.000000
        -1.671323,48.113873,0.000000
      </coordinates>
    </LineString>
  </Placemark>
  <Placemark>
    <name>Line 19</name>
    <description><![CDATA[]]></description>
    <styleUrl>#style6</styleUrl>
    <LineString>
      <tessellate>1</tessellate>
      <coordinates>
        -1.671655,48.114338,0.000000
        -1.671414,48.114491,0.000000
      </coordinates>
    </LineString>
  </Placemark>
  <Placemark>
    <name>Line 20</name>
    <description><![CDATA[]]></description>
    <styleUrl>#style18</styleUrl>
    <LineString>
      <tessellate>1</tessellate>
      <coordinates>
        -1.669558,48.114769,0.000000
        -1.669130,48.114780,0.000000
        -1.669070,48.114731,0.000000
        -1.668960,48.114792,0.000000
        -1.667240,48.114799,0.000000
        -1.667240,48.115009,0.000000
        -1.666870,48.114990,0.000000
        -1.666890,48.114780,0.000000
        -1.667240,48.114799,0.000000
        -1.667490,48.114410,0.000000
      </coordinates>
    </LineString>
  </Placemark>
  <Placemark>
    <name>Line 21</name>
    <description><![CDATA[]]></description>
    <styleUrl>#style38</styleUrl>
    <LineString>
      <tessellate>1</tessellate>
      <coordinates>
        -1.667621,48.114441,0.000000
        -1.667675,48.114788,0.000000
        -1.667691,48.115017,0.000000
        -1.667895,48.115105,0.000000
        -1.668050,48.115101,0.000000
        -1.667970,48.115013,0.000000
        -1.667932,48.114944,0.000000
        -1.668067,48.114799,0.000000
      </coordinates>
    </LineString>
  </Placemark>
  <Placemark>
    <name>Line 22</name>
    <description><![CDATA[]]></description>
    <styleUrl>#style9</styleUrl>
    <LineString>
      <tessellate>1</tessellate>
      <coordinates>
        -1.668050,48.115105,0.000000
        -1.668603,48.115101,0.000000
        -1.668571,48.114998,0.000000
        -1.668453,48.114975,0.000000
        -1.668447,48.114941,0.000000
        -1.668533,48.114876,0.000000
        -1.668565,48.114792,0.000000
        -1.668598,48.114880,0.000000
        -1.668726,48.114925,0.000000
        -1.668705,48.114990,0.000000
        -1.668571,48.115021,0.000000
      </coordinates>
    </LineString>
  </Placemark>
  <Placemark>
    <name>Line 23</name>
    <description><![CDATA[]]></description>
    <styleUrl>#style13</styleUrl>
    <LineString>
      <tessellate>1</tessellate>
      <coordinates>
        -1.668608,48.115097,0.000000
        -1.669080,48.115097,0.000000
        -1.669059,48.114830,0.000000
        -1.668957,48.114803,0.000000
      </coordinates>
    </LineString>
  </Placemark>
  <Placemark>
    <name>Line 24</name>
    <description><![CDATA[]]></description>
    <styleUrl>#style17</styleUrl>
    <LineString>
      <tessellate>1</tessellate>
      <coordinates>
        -1.669070,48.114841,0.000000
        -1.669172,48.114784,0.000000
      </coordinates>
    </LineString>
  </Placemark>
  <Placemark>
    <name>Line 28</name>
    <description><![CDATA[]]></description>
    <styleUrl>#style28</styleUrl>
    <LineString>
      <tessellate>1</tessellate>
      <coordinates>
        -1.667568,48.113888,0.000000
        -1.666924,48.113892,0.000000
        -1.666962,48.114071,0.000000
        -1.667042,48.114067,0.000000
        -1.667401,48.114189,0.000000
      </coordinates>
    </LineString>
  </Placemark>
  <Placemark>
    <name>Shape 5</name>
    <description><![CDATA[]]></description>
    <styleUrl>#style15</styleUrl>
    <Polygon>
      <outerBoundaryIs>
        <LinearRing>
          <tessellate>1</tessellate>
          <coordinates>
            -1.667690,48.114273,0.000000
            -1.667861,48.114197,0.000000
            -1.667975,48.114086,0.000000
            -1.668008,48.114025,0.000000
            -1.667954,48.113979,0.000000
            -1.667878,48.114002,0.000000
            -1.667818,48.113964,0.000000
            -1.667779,48.113945,0.000000
            -1.667676,48.114006,0.000000
            -1.667555,48.114082,0.000000
            -1.667532,48.114182,0.000000
            -1.667553,48.114246,0.000000
            -1.667690,48.114273,0.000000
          </coordinates>
        </LinearRing>
      </outerBoundaryIs>
    </Polygon>
  </Placemark>
  <Placemark>
    <name>Shape 6</name>
    <description><![CDATA[]]></description>
    <styleUrl>#style1</styleUrl>
    <Polygon>
      <outerBoundaryIs>
        <LinearRing>
          <tessellate>1</tessellate>
          <coordinates>
            -1.669558,48.115002,0.000000
            -1.669667,48.114975,0.000000
            -1.669702,48.114937,0.000000
            -1.669689,48.114887,0.000000
            -1.669621,48.114861,0.000000
            -1.669556,48.114845,0.000000
            -1.669486,48.114857,0.000000
            -1.669418,48.114868,0.000000
            -1.669375,48.114906,0.000000
            -1.669377,48.114948,0.000000
            -1.669411,48.114979,0.000000
            -1.669478,48.114998,0.000000
            -1.669558,48.115002,0.000000
          </coordinates>
        </LinearRing>
      </outerBoundaryIs>
    </Polygon>
  </Placemark>
  <Placemark>
    <name>Shape 7</name>
    <description><![CDATA[]]></description>
    <styleUrl>#style45</styleUrl>
    <Polygon>
      <outerBoundaryIs>
        <LinearRing>
          <tessellate>1</tessellate>
          <coordinates>
            -1.670193,48.115273,0.000000
            -1.669666,48.115273,0.000000
            -1.669658,48.115173,0.000000
            -1.670189,48.115166,0.000000
            -1.670193,48.115273,0.000000
          </coordinates>
        </LinearRing>
      </outerBoundaryIs>
    </Polygon>
  </Placemark>
  <Placemark>
    <name>Shape 8</name>
    <description><![CDATA[]]></description>
    <styleUrl>#style43</styleUrl>
    <Polygon>
      <outerBoundaryIs>
        <LinearRing>
          <tessellate>1</tessellate>
          <coordinates>
            -1.670796,48.115120,0.000000
            -1.670686,48.114765,0.000000
            -1.670206,48.114731,0.000000
            -1.670102,48.114819,0.000000
            -1.670193,48.114906,0.000000
            -1.670123,48.115074,0.000000
            -1.670246,48.115158,0.000000
            -1.670796,48.115120,0.000000
          </coordinates>
        </LinearRing>
      </outerBoundaryIs>
    </Polygon>
  </Placemark>
  <Placemark>
    <name>Shape 8</name>
    <description><![CDATA[]]></description>
    <styleUrl>#style12</styleUrl>
    <Polygon>
      <outerBoundaryIs>
        <LinearRing>
          <tessellate>1</tessellate>
          <coordinates>
            -1.666945,48.114780,0.000000
            -1.667312,48.114677,0.000000
            -1.667427,48.114540,0.000000
            -1.667444,48.114334,0.000000
            -1.667285,48.114155,0.000000
            -1.666942,48.114059,0.000000
            -1.666660,48.114105,0.000000
            -1.666486,48.114216,0.000000
            -1.666400,48.114380,0.000000
            -1.666451,48.114578,0.000000
            -1.666644,48.114716,0.000000
            -1.666945,48.114780,0.000000
          </coordinates>
        </LinearRing>
      </outerBoundaryIs>
    </Polygon>
  </Placemark>
  <Placemark>
    <name>Line 25</name>
    <description><![CDATA[]]></description>
    <styleUrl>#style5</styleUrl>
    <LineString>
      <tessellate>1</tessellate>
      <coordinates>
        -1.666540,48.114647,0.000000
        -1.666068,48.114929,0.000000
        -1.666017,48.114883,0.000000
        -1.666089,48.114391,0.000000
        -1.666403,48.114407,0.000000
      </coordinates>
    </LineString>
  </Placemark>
  <Placemark>
    <name>Line 26</name>
    <description><![CDATA[]]></description>
    <styleUrl>#style2</styleUrl>
    <LineString>
      <tessellate>1</tessellate>
      <coordinates>
        -1.666081,48.114929,0.000000
        -1.666156,48.114967,0.000000
        -1.666875,48.114990,0.000000
      </coordinates>
    </LineString>
  </Placemark>
  <Placemark>
    <name>Line 27</name>
    <description><![CDATA[]]></description>
    <styleUrl>#style31</styleUrl>
    <LineString>
      <tessellate>1</tessellate>
      <coordinates>
        -1.666092,48.114399,0.000000
        -1.666161,48.113979,0.000000
        -1.666333,48.113880,0.000000
        -1.666931,48.113892,0.000000
      </coordinates>
    </LineString>
  </Placemark>
  <Placemark>
    <name>Shape 9</name>
    <description><![CDATA[]]></description>
    <styleUrl>#style7</styleUrl>
    <Polygon>
      <outerBoundaryIs>
        <LinearRing>
          <tessellate>1</tessellate>
          <coordinates>
            -1.669977,48.114067,0.000000
            -1.669978,48.113903,0.000000
            -1.670405,48.113857,0.000000
            -1.670232,48.114059,0.000000
            -1.669977,48.114067,0.000000
          </coordinates>
        </LinearRing>
      </outerBoundaryIs>
    </Polygon>
  </Placemark>
  <Placemark>
    <name>Line 28</name>
    <description><![CDATA[]]></description>
    <styleUrl>#style41</styleUrl>
    <LineString>
      <tessellate>1</tessellate>
      <coordinates>
        -1.670448,48.113831,0.000000
        -1.670611,48.114407,0.000000
        -1.670694,48.114803,0.000000
      </coordinates>
    </LineString>
  </Placemark>
  <Placemark>
    <name>Shape 10</name>
    <description><![CDATA[]]></description>
    <styleUrl>#style29</styleUrl>
    <Polygon>
      <outerBoundaryIs>
        <LinearRing>
          <tessellate>1</tessellate>
          <coordinates>
            -1.671161,48.114265,0.000000
            -1.670955,48.114269,0.000000
            -1.671043,48.114773,0.000000
            -1.671089,48.115070,0.000000
            -1.671351,48.115040,0.000000
            -1.671223,48.114452,0.000000
            -1.671161,48.114265,0.000000
          </coordinates>
        </LinearRing>
      </outerBoundaryIs>
    </Polygon>
  </Placemark>
  <Placemark>
    <name>Line 29</name>
    <description><![CDATA[]]></description>
    <styleUrl>#style21</styleUrl>
    <LineString>
      <tessellate>1</tessellate>
      <coordinates>
        -1.670136,48.115070,0.000000
        -1.669066,48.115082,0.000000
      </coordinates>
    </LineString>
  </Placemark>
  <Placemark>
    <name>Line 30</name>
    <description><![CDATA[]]></description>
    <styleUrl>#style33</styleUrl>
    <LineString>
      <tessellate>1</tessellate>
      <coordinates>
        -1.670177,48.115093,0.000000
        -1.670107,48.115185,0.000000
        -1.669528,48.115158,0.000000
        -1.669536,48.115074,0.000000
      </coordinates>
    </LineString>
  </Placemark>
  <Placemark>
    <name>Line 31</name>
    <description><![CDATA[]]></description>
    <styleUrl>#style4</styleUrl>
    <LineString>
      <tessellate>1</tessellate>
      <coordinates>
        -1.669530,48.115154,0.000000
        -1.668575,48.115162,0.000000
        -1.668551,48.115097,0.000000
      </coordinates>
    </LineString>
  </Placemark>
  <Placemark>
    <name>Line 32</name>
    <description><![CDATA[]]></description>
    <styleUrl>#style35</styleUrl>
    <LineString>
      <tessellate>1</tessellate>
      <coordinates>
        -1.669072,48.115162,0.000000
        -1.669074,48.115082,0.000000
      </coordinates>
    </LineString>
  </Placemark>
  <Placemark>
    <name>Line 33</name>
    <description><![CDATA[]]></description>
    <styleUrl>#style39</styleUrl>
    <LineString>
      <tessellate>1</tessellate>
      <coordinates>
        -1.668570,48.114799,0.000000
        -1.668565,48.114716,0.000000
        -1.668457,48.114597,0.000000
        -1.668280,48.114498,0.000000
        -1.667867,48.114464,0.000000
        -1.667621,48.114441,0.000000
        -1.667883,48.114521,0.000000
        -1.667991,48.114681,0.000000
        -1.668044,48.114803,0.000000
      </coordinates>
    </LineString>
  </Placemark>
  <Placemark>
    <name>Line 34</name>
    <description><![CDATA[]]></description>
    <styleUrl>#style14</styleUrl>
    <LineString>
      <tessellate>1</tessellate>
      <coordinates>
        -1.668803,48.113708,0.000000
        -1.669066,48.113834,0.000000
        -1.669225,48.113991,0.000000
        -1.669259,48.114075,0.000000
      </coordinates>
    </LineString>
  </Placemark>
  <Placemark>
    <name>Line 35</name>
    <description><![CDATA[]]></description>
    <styleUrl>#style27</styleUrl>
    <LineString>
      <tessellate>1</tessellate>
      <coordinates>
        -1.669670,48.112690,0.000000
        -1.669412,48.112904,0.000000
        -1.669187,48.113232,0.000000
        -1.669123,48.113396,0.000000
      </coordinates>
    </LineString>
  </Placemark>
</Document>
</kml>
